<?xml version="1.0" encoding="UTF-8"?>
<svg width="95px" height="95px" viewBox="0 0 95 95" version="1.1" xmlns="http://www.w3.org/2000/svg" xmlns:xlink="http://www.w3.org/1999/xlink">
    <!-- Generator: Sketch 64 (93537) - https://sketch.com -->
    <title>best-rate-here</title>
    <desc>Created with Sketch.</desc>
    <defs>
        <path d="M48.8045674,9.38230881 L53.483777,0.775977083 C54.151215,-0.451749356 55.9922825,-0.160891471 56.2474193,1.21379474 L58.0395005,10.8447627 C58.2538154,12.0020709 59.666253,12.4602996 60.5194306,11.6510003 L67.6295841,4.91228237 C68.6440082,3.95092052 70.3034182,4.79593921 70.1227813,6.18185152 L68.8501588,15.8954843 C68.6970767,17.0619775 69.8982609,17.9345512 70.9606507,17.4283564 L79.8047142,13.2165301 C81.0671313,12.6154238 82.3836374,13.932959 81.782535,15.1953843 L77.570736,24.0405256 C77.0645445,25.1019018 77.9381331,26.3030938 79.1035982,26.1500107 L88.8181885,24.8773799 C90.2030713,24.6957213 91.0501256,26.3561626 90.0877495,27.3705933 L83.3490752,34.4807929 C82.5397811,35.3349965 82.9980069,36.7464227 84.1553076,36.960739 L93.7862131,38.7528318 C95.1608904,39.0079703 95.4517464,40.8490497 94.2240279,41.516492 L85.617752,46.195732 C84.5839375,46.7580573 84.5839375,48.2419427 85.617752,48.804268 L94.2240279,53.483508 C95.4517464,54.1519708 95.1608904,55.9920297 93.7862131,56.2471682 L84.1553076,58.039261 C82.9980069,58.2535773 82.5397811,59.666024 83.3490752,60.5192071 L90.0877495,67.6294067 C91.0501256,68.6438374 90.2030713,70.3042787 88.8181885,70.1226201 L79.1035982,68.8499893 C77.9381331,68.6969062 77.0645445,69.8980982 77.570736,70.9604949 L81.782535,79.8046157 C82.3836374,81.067041 81.0671313,82.3845762 79.8047142,81.7834699 L70.9606507,77.5716436 C69.8982609,77.0654488 68.6970767,77.9380225 68.8501588,79.1045157 L70.1227813,88.8181485 C70.3034182,90.2040608 68.6440082,91.0501 67.6295841,90.0887382 L60.5194306,83.3489997 C59.666253,82.5397004 58.2538154,82.9979291 58.0395005,84.1552373 L56.2474193,93.7862053 C55.9922825,95.1608915 54.151215,95.4517494 53.483777,94.2240229 L48.8045674,85.6176912 C48.2422458,84.58387 46.7583699,84.58387 46.1960483,85.6176912 L41.5158181,94.2240229 C40.8483801,95.4517494 39.0083332,95.1608915 38.7521758,93.7862053 L36.9621357,84.1552373 C36.7468002,82.9979291 35.3353832,82.5397004 34.4811851,83.3489997 L27.3710316,90.0887382 C26.3566075,91.0501 24.6961769,90.2040608 24.8778343,88.8181485 L26.1504569,79.1045157 C26.303539,77.9380225 25.1023548,77.0654488 24.039965,77.5716436 L15.1948809,81.7834699 C13.9334844,82.3845762 12.6159577,81.067041 13.2170601,79.8046157 L17.4288591,70.9604949 C17.9350506,69.8980982 17.0624826,68.6969062 15.895997,68.8499893 L6.18242713,70.1226201 C4.7965238,70.3042787 3.95151058,68.6438374 4.91184566,67.6294067 L11.6515405,60.5192071 C12.4608345,59.666024 12.0015882,58.2535773 10.845308,58.039261 L1.21440255,56.2471682 C-0.160274757,55.9920297 -0.452151304,54.1519708 0.775567178,53.483508 L9.38286367,48.804268 C10.4166782,48.2419427 10.4166782,46.7580573 9.38286367,46.195732 L0.775567178,41.516492 C-0.452151304,40.8490497 -0.160274757,39.0079703 1.21440255,38.7528318 L10.845308,36.960739 C12.0015882,36.7464227 12.4608345,35.3349965 11.6515405,34.4807929 L4.91184566,27.3705933 C3.95151058,26.3561626 4.7965238,24.6957213 6.18242713,24.8773799 L15.895997,26.1500107 C17.0624826,26.3030938 17.9350506,25.1019018 17.4288591,24.0405256 L13.2170601,15.1953843 C12.6159577,13.932959 13.9334844,12.6154238 15.1948809,13.2165301 L24.039965,17.4283564 C25.1023548,17.9345512 26.303539,17.0619775 26.1504569,15.8954843 L24.8778343,6.18185152 C24.6961769,4.79593921 26.3566075,3.95092052 27.3710316,4.91228237 L34.4811851,11.6510003 C35.3353832,12.4602996 36.7468002,12.0020709 36.9621357,10.8447627 L38.7521758,1.21379474 C39.0083332,-0.160891471 40.8483801,-0.451749356 41.5158181,0.775977083 L46.1960483,9.38230881 C46.7583699,10.41613 48.2422458,10.41613 48.8045674,9.38230881" id="path-1"></path>
    </defs>
    <g id="best-rate-here" stroke="none" stroke-width="1" fill="none" fill-rule="evenodd">
        <g id="Fill-1">
            <g id="Group-4">
                <g id="Color/@pink">
                    <mask id="mask-2" fill="white">
                        <use xlink:href="#path-1"></use>
                    </mask>
                    <use id="Mask" fill="#000000" xlink:href="#path-1"></use>
                    <g mask="url(#mask-2)" fill="#35AF60" id="Rectangle">
                        <g transform="translate(0.000457, -1.010638)">
                            <rect x="0" y="0" width="96.0106383" height="96.0106383"></rect>
                        </g>
                    </g>
                </g>
                <text id="BEST" font-family="Roobert-Heavy, Roobert" font-size="15.6042" font-weight="600" fill="#000000">
                    <tspan x="29" y="38">BEST</tspan>
                </text>
                <text id="RATE" font-family="Roobert-Heavy, Roobert" font-size="15.6042" font-weight="600" fill="#000000">
                    <tspan x="28" y="53">RATE</tspan>
                </text>
                <text id="HERE" font-family="Roobert-Heavy, Roobert" font-size="15.6042" font-weight="600" fill="#000000">
                    <tspan x="27" y="68">HERE</tspan>
                </text>
            </g>
        </g>
    </g>
</svg>