<?xml version="1.0" encoding="UTF-8"?>
<svg width="179px" height="178px" viewBox="0 0 179 178" version="1.1" xmlns="http://www.w3.org/2000/svg" xmlns:xlink="http://www.w3.org/1999/xlink">
    <!-- Generator: Sketch 64 (93537) - https://sketch.com -->
    <title>Patch/Big_shit</title>
    <desc>Created with Sketch.</desc>
    <defs>
        <polygon id="path-1" points="0 0.194754098 178.815956 0.194754098 178.815956 178.032787 0 178.032787"></polygon>
        <polygon id="path-3" points="0 178.822623 178.816154 178.822623 178.816154 0.983606557 0 0.983606557"></polygon>
    </defs>
    <g id="Layout" stroke="none" stroke-width="1" fill="none" fill-rule="evenodd">
        <g id="00_06_Corporate_Responsibility" transform="translate(-377.000000, -2376.000000)">
            <g id="Patch/big_romans-Copy" transform="translate(376.000000, 2374.000000)">
                <g id="Group-117" transform="translate(0.989011, 0.983607)">
                    <g id="Group-3" transform="translate(0.000000, 0.789836)">
                        <mask id="mask-2" fill="white">
                            <use xlink:href="#path-1"></use>
                        </mask>
                        <g id="Clip-2"></g>
                        <path d="M89.4083736,178.032787 C40.029033,178.032787 -0.000197802198,138.223279 -0.000197802198,89.1137705 C-0.000197802198,40.0042623 40.029033,0.194754098 89.4083736,0.194754098 C138.786725,0.194754098 178.815956,40.0042623 178.815956,89.1137705 C178.815956,138.223279 138.786725,178.032787 89.4083736,178.032787 Z" id="Fill-1" fill="#131415" mask="url(#mask-2)"></path>
                    </g>
                    <mask id="mask-4" fill="white">
                        <use xlink:href="#path-3"></use>
                    </mask>
                    <g id="Clip-109"></g>
                </g>
                <g id="Group-89" transform="translate(10.879121, 10.819672)">
                    <polygon id="Fill-3" fill="#FFFFFF" points="2.40052747 62.4175082 3.29162637 59.1627541 13.3063516 61.8794754 14.8205275 56.3535738 17.5976703 57.108 15.1923956 65.8847213"></polygon>
                    <path d="M13.6147253,51.6161311 L15.0636264,48.421377 C14.2961538,48.1410492 13.3467033,48.3554754 12.9026374,49.3351475 C12.4902198,50.244 12.6464835,50.9551475 13.6147253,51.6161311 M17.4421978,49.4059672 L18.6794505,46.6754754 C20.4507692,47.9030164 20.9057143,50.1535082 19.9404396,52.2820328 C18.5320879,55.3912131 15.4582418,55.7079344 13.4040659,54.7872787 C11.3489011,53.8656393 9.47373626,51.5384262 10.8820879,48.4292459 C12.3685714,45.148918 15.3474725,45.181377 17.1781319,46.0007213 C17.5747253,46.1807213 17.8081319,46.3056393 18.0069231,46.4148197 L15.3069231,52.3744918 C16.3523077,52.6380984 17.1771429,52.284 17.643956,51.2531803 C17.9950549,50.4800656 17.9594505,49.824 17.4421978,49.4059672" id="Fill-5" fill="#FFFFFF"></path>
                    <path d="M14.1488901,37.1252459 L16.4473516,38.552459 L17.7202088,36.5232787 L19.9059231,37.8796721 L18.6320769,39.9088525 L21.2994396,41.5662295 C22.0402088,42.0245902 22.5910879,41.857377 23.0232857,41.1698361 L23.6344945,40.195082 L25.8192198,41.552459 L24.9568022,42.9265574 C23.7126264,44.9085246 21.7810879,45.5301639 19.7733956,44.2819672 L16.9754835,42.5468852 L16.0428462,44.0321311 L13.8581209,42.6757377 L14.7907582,41.1895082 L12.4922967,39.7622951 L14.1488901,37.1252459 Z" id="Fill-7" fill="#FFFFFF"></path>
                    <path d="M18.978033,33.9918689 C19.3172637,33.564 19.1837473,33.001377 18.6486923,32.5823607 L16.6261648,30.9938361 L18.4578132,28.6862951 L20.7325385,30.4735082 C22.219022,31.6400656 22.4672637,33.3958033 21.3299011,34.8308852 L20.5653956,35.7918689 L18.708033,34.3321967 L18.978033,33.9918689 Z" id="Fill-9" fill="#FFFFFF"></path>
                    <path d="M27.09,34.5816393 L28.9127473,32.6921311 C29.4685714,33.092459 30.2034066,32.9842623 30.7542857,32.4127869 C31.2131868,31.9377049 31.3358242,31.4291803 31.0351648,31.1419672 C29.9136264,30.0718033 27.6557143,34.7291803 24.7984615,32.0065574 C23.5552747,30.8193443 23.7006593,28.8708197 25.023956,27.4977049 C26.6756044,25.7852459 28.7050549,25.5029508 30.151978,26.7767213 L28.3163736,28.6819672 C27.7862637,28.3062295 27.0781319,28.3878689 26.6330769,28.8501639 C26.2265934,29.2721311 26.1296703,29.7255738 26.4857143,30.064918 C27.7012088,31.2255738 29.7108791,26.1747541 32.7995604,29.1196721 C34.1545055,30.4101639 34.0071429,32.3321311 32.4079121,33.9895082 C30.7572527,35.7039344 28.6595604,35.9478689 27.09,34.5816393" id="Fill-11" fill="#FFFFFF"></path>
                    <path d="M41.8459451,19.9802951 C41.0784725,18.858 39.9064945,18.5570164 38.9362747,19.2140656 C37.9502308,19.882918 37.8028681,21.0760328 38.5723187,22.1973443 C39.3407802,23.3186557 40.5097912,23.620623 41.4968242,22.9527541 C42.468033,22.2947213 42.6134176,21.100623 41.8459451,19.9802951 M40.942978,25.3576721 L41.4018791,26.0275082 L38.8175934,27.7793115 L31.0499011,16.4373443 L33.6341868,14.6875082 L36.4508901,18.7999672 C36.5646264,18.0612787 37.0195714,17.3196393 37.9433077,16.6940656 C40.1675934,15.1861967 42.649022,15.7635738 44.3669341,18.2717705 C46.0848462,20.7789836 45.7159451,23.2861967 43.4451758,24.825541 C42.6302308,25.3783279 41.7173736,25.5848852 40.942978,25.3576721" id="Fill-13" fill="#FFFFFF"></path>
                    <path d="M47.7974176,15.3917705 L50.9948901,13.9183279 C50.6002747,13.2061967 49.7408242,12.7507869 48.7617033,13.2032459 C47.8508242,13.6222623 47.5007143,14.2625902 47.7974176,15.3917705 M52.1470879,16.2111148 L54.8797253,14.9511148 C55.4118132,17.0314426 54.2754396,19.0301311 52.1451099,20.0127541 C49.0336813,21.4478361 46.4998352,19.6881639 45.5513736,17.653082 C44.6039011,15.618 44.7176374,12.6376721 47.8290659,11.2025902 C51.1125824,9.68980328 53.3418132,11.6520984 54.1874176,13.4639016 C54.3703846,13.8563607 54.4643407,14.1042295 54.5434615,14.3166885 L48.5777473,17.0678361 C49.1968681,17.9461967 50.0533516,18.2157049 51.0848901,17.740623 C51.8573077,17.3825902 52.2637912,16.8632459 52.1470879,16.2111148" id="Fill-15" fill="#FFFFFF"></path>
                    <path d="M62.5109341,3.57688525 L63.1409341,6.19622951 L65.4799451,5.6395082 L66.0792857,8.13295082 L63.7392857,8.68868852 L64.4701648,11.73 C64.6748901,12.5729508 65.1862088,12.837541 65.9774176,12.6496721 L67.1009341,12.3821311 L67.7012637,14.8736066 L66.1158791,15.2503279 C63.8332418,15.7942623 62.0184066,14.8893443 61.4665385,12.6004918 L60.7000549,9.41163934 L58.9870879,9.81885246 L58.3877473,7.32737705 L60.1007143,6.91918033 L59.4717033,4.29885246 L62.5109341,3.57688525 Z" id="Fill-17" fill="#FFFFFF"></path>
                    <path d="M68.6612967,0.801934426 L71.7747033,0.557016393 L72.198,5.85177049 C72.6865714,5.07767213 73.6469011,4.49045902 74.8930549,4.39111475 C77.0273407,4.22390164 78.5494286,5.67177049 78.7165714,7.77472131 L79.1912967,13.7275082 L76.0769011,13.9743934 L75.6595385,8.75340984 C75.5843736,7.81406557 74.8663516,7.15209836 73.9228352,7.22685246 C72.9783297,7.30062295 72.375033,8.06783607 72.4501978,9.00718033 L72.8665714,14.2252131 L69.7511868,14.4720984 L68.6612967,0.801934426 Z" id="Fill-19" fill="#FFFFFF"></path>
                    <path d="M83.7157253,8.13767213 L87.2257253,8.42980328 C87.2375934,7.61832787 86.7163846,6.79996721 85.6403407,6.71045902 C84.6404505,6.62685246 84.0193516,7.01045902 83.7157253,8.13767213 M87.0862747,10.9891475 L90.0879231,11.238 C89.5142967,13.3084918 87.5333077,14.4848852 85.1933077,14.2901311 C81.7772637,14.0058689 80.451989,11.2320984 80.6399011,8.99734426 C80.8268242,6.76357377 82.4092418,4.22881967 85.8252857,4.51406557 C89.4302308,4.81308197 90.3925385,7.61636066 90.2244066,9.60521311 C90.1888022,10.0370164 90.1482527,10.2976721 90.1096813,10.5219344 L83.5614396,9.97701639 C83.6603407,11.0442295 84.2715495,11.7002951 85.402978,11.7947213 C86.2525385,11.865541 86.8637473,11.6137377 87.0862747,10.9891475" id="Fill-21" fill="#FFFFFF"></path>
                    <path d="M95.6215385,10.8214426 C96.4750549,8.08504918 99.09,6.76111475 101.895824,7.62767213 C104.449451,8.41455738 105.884505,10.5539016 105.342527,12.7345574 L102.337912,11.808 C102.405165,11.0801311 101.943297,10.4034098 101.218352,10.1801311 C100.114615,9.83980328 99.1265934,10.4624262 98.7171429,11.7765246 C98.3067033,13.090623 98.7843956,14.1657049 99.9069231,14.5119344 C100.64967,14.7401311 101.422088,14.4273443 101.762308,13.7811148 L104.821319,14.725377 C103.94011,16.723082 101.366703,17.7243934 98.9762637,16.9876721 C96.1714286,16.1220984 94.769011,13.5578361 95.6215385,10.8214426" id="Fill-23" fill="#FFFFFF"></path>
                    <path d="M110.949231,6.48737705 L113.741209,7.88508197 L111.340879,12.6319672 C112.164725,12.2218033 113.291209,12.214918 114.407802,12.7755738 C116.320549,13.732623 116.866484,15.7559016 115.913077,17.6414754 L113.213077,22.9795082 L110.42011,21.5818033 L112.786813,16.9008197 C113.214066,16.0588525 112.945055,15.122459 112.097473,14.6995082 C111.252857,14.2755738 110.336044,14.6198361 109.90978,15.4608197 L107.542088,20.1408197 L104.748132,18.7431148 L110.949231,6.48737705 Z" id="Fill-25" fill="#FFFFFF"></path>
                    <path d="M120.933989,23.7379672 L119.642341,22.8123934 C119.195308,22.4927213 118.641462,22.5832131 118.309154,23.0415738 C118.021352,23.4399344 118.158824,23.9573115 118.605857,24.276 C119.419813,24.8602623 120.369264,24.5169836 120.889484,23.7989508 L120.933989,23.7379672 Z M124.805967,23.6789508 L121.217835,28.633377 L118.696846,26.8264918 L119.38322,25.8792787 C118.717615,26.3779672 117.623769,26.2432131 116.624868,25.5281311 C115.179923,24.4923934 114.892121,22.7307541 115.821791,21.4461639 C116.917615,19.9323934 118.688934,19.8074754 120.319813,20.9750164 L121.425527,21.7687869 C121.825088,22.0550164 122.240473,21.9330492 122.506516,21.5671475 C122.838824,21.1087869 122.685527,20.5117377 121.994209,20.016 C121.149593,19.411082 120.464209,19.7100984 120.049813,20.2491148 L117.836407,18.663541 C119.027176,17.1487869 121.153549,16.6973115 123.444099,18.3379672 C125.380582,19.7248525 126.068934,21.9350164 124.805967,23.6789508 L124.805967,23.6789508 Z" id="Fill-27" fill="#FFFFFF"></path>
                    <path d="M129.03933,22.7581967 L131.25867,24.9467213 L130.486253,25.7227869 C131.396143,25.585082 132.470209,25.9254098 133.357352,26.8008197 C134.878451,28.2998361 134.76867,30.3909836 133.275264,31.89 L129.04922,36.1342623 L126.827901,33.9457377 L130.534714,30.2247541 C131.201308,29.5559016 131.236912,28.5831148 130.563396,27.9201639 C129.890868,27.2572131 128.912736,27.302459 128.246143,27.9703279 L124.540319,31.6922951 L122.319,29.5027869 L129.03933,22.7581967 Z" id="Fill-29" fill="#FFFFFF"></path>
                    <path d="M137.818681,39.9290164 C138.945165,39.1303279 139.217143,37.9844262 138.511978,37.0027869 C137.817692,36.0388525 136.642747,35.9257377 135.516264,36.7244262 C134.38978,37.525082 134.118791,38.6670492 134.812088,39.6329508 C135.518242,40.6145902 136.693187,40.7277049 137.818681,39.9290164 L137.818681,39.9290164 Z M143.422418,39.5601639 L135.144396,45.4431148 C133.54022,46.5840984 131.680879,46.1670492 130.403077,44.3896721 L127.517143,40.3716393 L129.45956,38.9916393 L132.015165,42.5483607 C132.38011,43.054918 133.05956,43.1267213 133.644066,42.7086885 L134.507473,42.0959016 C133.703407,42.0437705 132.908242,41.5204918 132.333626,40.7227869 C130.736374,38.4998361 131.260549,36.0201639 133.742967,34.2555738 C136.225385,32.4909836 138.753297,32.8027869 140.317912,34.9795082 C140.967692,35.8844262 141.136813,36.7362295 140.988462,37.4680328 L141.604615,37.0293443 L143.422418,39.5601639 Z" id="Fill-31" fill="#FFFFFF"></path>
                    <path d="M142.887363,46.2236066 L144.436154,49.3711475 C145.143297,48.9639344 145.582418,48.1003279 145.108681,47.1363934 C144.666593,46.2393443 144.017802,45.904918 142.887363,46.2236066 M142.155495,50.5652459 L143.47978,53.2563934 C141.396923,53.8278689 139.365495,52.7409836 138.332967,50.6419672 C136.826703,47.5790164 138.542637,45.022623 140.568132,44.0370492 C142.592637,43.052459 145.591319,43.102623 147.100549,46.1665574 C148.688901,49.3986885 146.763297,51.6570492 144.96033,52.5344262 C144.568681,52.7252459 144.322418,52.8255738 144.108791,52.9081967 L141.218901,47.035082 C140.350549,47.6685246 140.097363,48.5252459 140.595824,49.5403279 C140.971648,50.3016393 141.501758,50.6931148 142.155495,50.5652459" id="Fill-33" fill="#FFFFFF"></path>
                    <polygon id="Fill-35" fill="#FFFFFF" points="143.52478 64.6527541 139.366978 64.2632459 138.648956 61.3940656 142.944231 61.8642295 151.199505 56.3117705 151.963022 59.3648852 146.987308 62.3412787 152.779945 62.6363607 153.548407 65.7081639"></polygon>
                    <path d="M149.697396,74.4043279 C151.055308,74.2744918 151.884099,73.4000656 151.769374,72.2187541 C151.654648,71.0374426 150.673549,70.3361311 149.315637,70.4669508 C147.958714,70.5958033 147.129923,71.4712131 147.245637,72.651541 C147.359374,73.8328525 148.340473,74.5341639 149.697396,74.4043279 M149.017945,67.3735082 C151.824758,67.104 154.124209,69.0220328 154.408055,71.9659672 C154.693879,74.908918 152.806846,77.2292459 149.997066,77.4977705 C147.188275,77.7662951 144.890802,75.8482623 144.605967,72.9043279 C144.320143,69.961377 146.209154,67.6410492 149.017945,67.3735082" id="Fill-37" fill="#FFFFFF"></path>
                    <path d="M144.580451,88.352459 L144.795066,85.2521311 L145.89089,85.3268852 C145.191659,84.7308197 144.751549,83.7009836 144.836604,82.4586885 C144.982978,80.3360656 146.649462,79.052459 148.764956,79.1970492 L154.755396,79.6072131 L154.54078,82.7104918 L149.287154,82.3485246 C148.342648,82.2845902 147.579132,82.8934426 147.514846,83.8327869 C147.447593,84.7721311 148.12111,85.4793443 149.065615,85.5452459 L154.319242,85.9032787 L154.104626,89.0045902 L144.580451,88.352459 Z" id="Fill-39" fill="#FFFFFF"></path>
                    <polygon id="Fill-41" fill="#FFFFFF" points="153.039264 95.986918 152.037396 98.9328197 146.684868 98.6259344 151.135418 101.592492 150.238385 104.235443 144.884868 103.92659 149.335418 106.894131 148.335527 109.839049 140.308714 103.802656 141.161242 101.284623 146.605747 101.562984 142.120582 98.464623 142.974099 95.9485574"></polygon>
                    <path d="M139.850802,115.046262 C141.039593,115.71118 142.222451,115.465279 142.807945,114.429541 C143.39344,113.393803 142.989923,112.262656 141.802121,111.596754 C140.612341,110.930852 139.428495,111.178721 138.843989,112.213475 C138.259484,113.249213 138.662011,114.380361 139.850802,115.046262 M143.334099,108.884951 C145.794758,110.262984 146.578055,113.143967 145.120253,115.722984 C143.662451,118.302984 140.778495,119.132164 138.317835,117.757082 C135.857176,116.380033 135.073879,113.499049 136.531681,110.920033 C137.990473,108.340033 140.872451,107.510852 143.334099,108.884951" id="Fill-43" fill="#FFFFFF"></path>
                    <path d="M127.615648,123.602852 L129.574879,121.178262 L130.431363,121.863836 C130.197956,120.97859 130.430374,119.879902 131.21367,118.910066 C132.554769,117.251705 134.659385,117.145475 136.313011,118.467443 L140.994,122.211049 L139.036747,124.633672 L134.930374,121.351377 C134.191582,120.76023 133.215429,120.826131 132.622022,121.559902 C132.028615,122.295639 132.173011,123.256623 132.910813,123.848754 L137.017187,127.130066 L135.057956,129.553672 L127.615648,123.602852 Z" id="Fill-45" fill="#FFFFFF"></path>
                    <polygon id="Fill-47" fill="#FFFFFF" points="135.876363 134.636754 133.633286 136.802656 124.020099 126.960689 126.263176 124.793803"></polygon>
                    <path d="M120.457879,135.969049 C121.278758,137.051016 122.461615,137.297902 123.414033,136.581836 C124.351615,135.879541 124.439637,134.680525 123.617769,133.598557 C122.795901,132.514623 121.614033,132.268721 120.67744,132.972984 C119.725022,133.688066 119.636011,134.885115 120.457879,135.969049 M126.052714,131.771016 C127.888319,134.193639 127.641066,136.713639 125.493923,138.324787 C124.601835,138.993639 123.750297,139.185443 123.012495,139.054623 L126.021066,143.025443 L123.52678,144.895279 L115.226011,133.948721 L117.720297,132.076918 L118.210846,132.723148 C118.243484,131.921508 118.733044,131.128721 119.519308,130.538557 C121.711945,128.893967 124.216121,129.351344 126.052714,131.771016" id="Fill-49" fill="#FFFFFF"></path>
                    <path d="M112.224165,139.44718 L109.837681,140.552754 C109.462846,139.977344 108.740868,139.813082 108.01889,140.148492 C107.417571,140.426852 107.116912,140.857672 107.292956,141.232426 C107.94867,142.633082 111.750429,139.104885 113.421857,142.674393 C114.14878,144.227508 113.303176,145.991115 111.56944,146.794721 C109.406473,147.797016 107.411637,147.32882 106.525484,145.618328 L108.930758,144.506852 C109.287791,145.045869 109.978121,145.224885 110.560648,144.955377 C111.093725,144.708492 111.349879,144.318984 111.142187,143.875377 C110.432077,142.355705 106.718341,146.341279 104.910429,142.481607 C104.11922,140.790787 104.954934,139.052754 107.050648,138.081934 C109.213615,137.081607 111.257901,137.60882 112.224165,139.44718" id="Fill-51" fill="#FFFFFF"></path>
                    <path d="M101.951604,146.559148 L98.5780879,147.569311 C98.8668791,148.328656 99.6531429,148.901115 100.686659,148.590295 C101.648967,148.302098 102.085121,147.719803 101.951604,146.559148 M97.7621538,145.13882 L94.8772088,146.002426 C94.6457802,143.867016 96.0541319,142.047344 98.3041319,141.374557 C101.586659,140.390951 103.844571,142.488 104.495341,144.636197 C105.145121,146.78341 104.610066,149.718492 101.327538,150.701115 C97.862044,151.739803 95.9314945,149.484393 95.3529231,147.571279 C95.2273187,147.156197 95.169956,146.898492 95.1214945,146.67718 L101.416549,144.790623 C100.928967,143.834557 100.118967,143.448 99.0310549,143.774557 C98.2141319,144.018492 97.7384176,144.474885 97.7621538,145.13882" id="Fill-53" fill="#FFFFFF"></path>
                    <path d="M91.3043077,149.144951 L87.822,149.675115 C88.001011,150.467902 88.6982637,151.142656 89.7654066,150.980361 C90.7583736,150.828885 91.2726593,150.312492 91.3043077,149.144951 M87.3571648,147.154131 L84.3812308,147.607574 C84.4524396,145.461344 86.1030989,143.857082 88.4243077,143.503967 C91.8146374,142.988557 93.7530989,145.380689 94.0943077,147.596754 C94.4355165,149.81282 93.490022,152.643639 90.1016703,153.159049 C86.5244176,153.702984 84.9330989,151.200689 84.6294725,149.22659 C84.5651868,148.797738 84.5414505,148.535115 84.5256264,148.307902 L91.0244176,147.320361 C90.6762857,146.305279 89.9285934,145.810525 88.8070549,145.980689 C87.9624396,146.108557 87.4273846,146.495115 87.3571648,147.154131" id="Fill-55" fill="#FFFFFF"></path>
                    <path d="M78.3988022,153.772918 L75.2764945,153.664721 L75.6068242,144.175869 L78.7301209,144.284066 L78.3988022,153.772918 Z M75.051989,157.879475 L75.1588022,154.828328 L78.4166044,154.941443 L78.3088022,157.991607 L75.051989,157.879475 Z" id="Fill-57" fill="#FFFFFF"></path>
                    <path d="M72.4667143,153.589377 L69.380011,153.105443 L69.5511099,152.025443 C68.8934176,152.666754 67.8213297,153.012984 66.587044,152.81823 C64.4715495,152.486754 63.3341868,150.723148 63.6645165,148.640852 L64.6011099,142.740197 L67.6888022,143.226098 L66.8669341,148.399869 C66.7185824,149.329377 67.2615495,150.140852 68.1971538,150.286426 C69.1317692,150.433967 69.8992418,149.829049 70.0485824,148.898557 L70.8694615,143.72577 L73.9581429,144.209705 L72.4667143,153.589377 Z" id="Fill-59" fill="#FFFFFF"></path>
                    <path d="M50.8832308,151.042033 L51.8435604,148.523016 L49.5925714,147.674164 L50.5074066,145.279082 L52.7574066,146.126951 L53.872022,143.201705 C54.1805934,142.39023 53.9076264,141.884656 53.1460879,141.597443 L52.0650989,141.189246 L52.9789451,138.794164 L54.502022,139.36859 C56.7005934,140.19777 57.6896044,141.961377 56.8489451,144.162689 L55.6809231,147.22859 L57.3286154,147.85023 L56.4147692,150.247279 L54.7680659,149.626623 L53.8057582,152.144656 L50.8832308,151.042033 Z" id="Fill-61" fill="#FFFFFF"></path>
                    <path d="M44.2422198,149.910492 L41.5263956,148.368197 L44.1779341,143.752131 C43.3343077,144.119016 42.2078242,144.065902 41.1228791,143.448197 C39.2625495,142.391803 38.8244176,140.340984 39.8777143,138.508525 L42.8585934,133.320984 L45.5744176,134.863279 L42.9594725,139.413443 C42.4906813,140.231803 42.7082637,141.180984 43.5311209,141.648197 C44.353978,142.116393 45.2876044,141.821311 45.7573846,141.002951 L48.3723297,136.452787 L51.0881538,137.997049 L44.2422198,149.910492 Z" id="Fill-63" fill="#FFFFFF"></path>
                    <path d="M35.9525275,135.402295 L33.2149451,133.197049 C32.7481319,133.860984 32.7154945,134.828852 33.5531868,135.50459 C34.3335165,136.133115 35.0643956,136.16459 35.9525275,135.402295 M34.7785714,131.16 L32.4405495,129.273443 C34.0842857,127.882623 36.3876923,128.018361 38.2114286,129.488852 C40.8758242,131.636066 40.3991209,134.671475 38.9818681,136.412459 C37.5616484,138.15541 34.8201099,139.363279 32.1586813,137.217049 C29.3469231,134.95082 30.1371429,132.097377 31.4020879,130.54623 C31.677033,130.209836 31.857033,130.017049 32.0162637,129.852787 L37.1215385,133.968197 C37.6417582,133.03082 37.5082418,132.146557 36.627033,131.43541 C35.9643956,130.901311 35.3165934,130.768525 34.7785714,131.16" id="Fill-65" fill="#FFFFFF"></path>
                    <polygon id="Fill-67" fill="#FFFFFF" points="23.7472418 129.621639 21.875044 127.132131 25.1664725 122.919344 20.1838352 124.883607 18.5044945 122.649836 21.7949341 118.437049 16.8132857 120.401311 14.9410879 117.91082 24.4949341 114.758361 26.0941648 116.886885 22.777022 121.18918 27.8882308 119.270164 29.4884505 121.397705"></polygon>
                    <path d="M15.4604176,108.014066 C14.236022,108.609148 13.7682198,109.716689 14.2914066,110.781934 C14.8155824,111.848164 15.9806374,112.163902 17.206022,111.56882 C18.4314066,110.973738 18.9001978,109.866197 18.376022,108.798984 C17.8528352,107.732754 16.6858022,107.418 15.4604176,108.014066 M18.5777802,114.360295 C16.0429451,115.592754 13.2133846,114.597344 11.9078901,111.939639 C10.6033846,109.282918 11.5538242,106.452098 14.0896484,105.219639 C16.6254725,103.988164 19.454044,104.984557 20.7585495,107.641279 C22.064044,110.299967 21.1145934,113.12882 18.5777802,114.360295" id="Fill-69" fill="#FFFFFF"></path>
                    <path d="M10.0005824,99.6879344 C10.323,100.672525 11.2655275,101.002033 12.5453077,100.586951 L17.1382747,99.1017049 L18.1045385,102.057443 L9.0273956,104.994492 L8.06113187,102.038754 L9.42992308,101.594164 C8.17882418,101.425967 7.67442857,100.855475 7.34607692,99.8531803 L7.03552747,98.9030164 L9.48530769,98.1102295 L10.0005824,99.6879344 Z" id="Fill-71" fill="#FFFFFF"></path>
                    <polygon id="Fill-73" fill="#FFFFFF" points="2.40913187 97.6794098 1.7366044 94.6420328 15.202978 91.6872787 15.8745165 94.7226885"></polygon>
                    <path d="M9.35643956,83.9300656 C7.99852747,84.0579344 7.16874725,84.931377 7.28149451,86.1126885 C7.39226374,87.2743279 8.37237363,87.976623 9.7292967,87.8497377 C11.0862198,87.7208852 11.916989,86.8484262 11.8072088,85.6867869 C11.6934725,84.5054754 10.7143516,83.8021967 9.35643956,83.9300656 M10.0170989,90.8694098 C6.98182418,91.1556393 4.95237363,89.6241639 4.69918681,86.961541 C4.59435165,85.8549836 4.87621978,85.0336721 5.37567033,84.4759672 L0.396989011,84.9431803 L0.102263736,81.8497377 L13.8297363,80.5582623 L14.1244615,83.6526885 L13.3134725,83.7284262 C13.984022,84.1759672 14.4043516,85.0080984 14.4983077,85.9808852 C14.7574286,88.701541 13.0523736,90.5831803 10.0170989,90.8694098" id="Fill-75" fill="#FFFFFF"></path>
                    <path d="M10.9326264,74.8999672 L14.0766923,75.0111148 L13.958011,78.3248852 L10.8159231,78.2147213 L10.9326264,74.8999672 Z M0.693395604,78.1586557 L0.832846154,74.2409508 L9.97130769,75.2816066 L9.8822967,77.7671803 L0.693395604,78.1586557 Z" id="Fill-77" fill="#FFFFFF"></path>
                    <path d="M80.2454835,47.7623607 L87.1487802,26.3571148 C87.4168022,25.528918 88.6451538,25.7236721 88.6421868,26.5931803 L88.5571319,49.071541 C88.5541648,49.8112131 89.5065824,50.119082 89.9427363,49.519082 L103.15889,31.284 C103.670209,30.5777705 104.77889,31.1403934 104.504934,31.9656393 L97.4404286,53.3187541 C97.207022,54.0210492 98.018011,54.6072787 98.6173516,54.1705574 L116.854714,40.888918 C117.559879,40.3744918 118.43911,41.2499016 117.922846,41.9512131 L104.568231,60.0879344 C104.128121,60.6849836 104.717571,61.4905574 105.423725,61.2594098 L126.894165,54.2325246 C127.724934,53.9610492 128.289659,55.0636721 127.580538,55.5712131 L109.244275,68.7171148 C108.640978,69.148918 108.950538,70.0961311 109.694275,70.0931803 L132.297132,70.0085902 C133.171418,70.0056393 133.366253,71.2272787 132.533505,71.4938361 L111.010648,78.3594098 C110.302516,78.5856393 110.302516,79.5820328 111.010648,79.8072787 L132.533505,86.6738361 C133.366253,86.9394098 133.171418,88.1610492 132.297132,88.1580984 L109.694275,88.0735082 C108.950538,88.0705574 108.640978,89.0177705 109.244275,89.451541 L127.580538,102.595475 C128.289659,103.104 127.724934,104.206623 126.894165,103.934164 L105.423725,96.9082623 C104.717571,96.6761311 104.128121,97.4826885 104.568231,98.0787541 L117.922846,116.216459 C118.43911,116.91777 117.559879,117.792197 116.854714,117.278754 L98.6173516,103.997115 C98.018011,103.560393 97.207022,104.145639 97.4404286,104.847934 L104.504934,126.201049 C104.77889,127.027279 103.670209,127.588918 103.15889,126.883672 L89.9427363,108.647607 C89.5065824,108.047607 88.5541648,108.356459 88.5571319,109.095148 L88.6421868,131.574492 C88.6451538,132.444 87.4168022,132.63777 87.1487802,131.809574 L80.2454835,110.405311 C80.019,109.701049 79.0171319,109.701049 78.7896593,110.405311 L71.8863626,131.809574 C71.6183407,132.63777 70.389989,132.444 70.392956,131.574492 L70.478011,109.095148 C70.480978,108.356459 69.5285604,108.047607 69.0933956,108.647607 L55.8762527,126.883672 C55.3659231,127.588918 54.2572418,127.027279 54.5302088,126.201049 L61.5957033,104.847934 C61.8281209,104.145639 61.0181209,103.560393 60.4177912,103.997115 L42.1814176,117.278754 C41.4762527,117.792197 40.596033,116.91777 41.1132857,116.216459 L54.4679011,98.0787541 C54.907022,97.4826885 54.3175714,96.6761311 53.6114176,96.9082623 L32.140978,103.934164 C31.3102088,104.206623 30.7454835,103.104 31.4546044,102.595475 L49.7908681,89.451541 C50.3941648,89.0177705 50.0846044,88.0705574 49.3408681,88.0735082 L26.738011,88.1580984 C25.8647143,88.1610492 25.6688901,86.9394098 26.5016374,86.6738361 L48.0244945,79.8072787 C48.7336154,79.5820328 48.7336154,78.5856393 48.0244945,78.3594098 L26.5016374,71.4938361 C25.6688901,71.2272787 25.8647143,70.0056393 26.738011,70.0085902 L49.3408681,70.0931803 C50.0846044,70.0961311 50.3941648,69.148918 49.7908681,68.7171148 L31.4546044,55.5712131 C30.7454835,55.0636721 31.3102088,53.9610492 32.140978,54.2325246 L53.6114176,61.2594098 C54.3175714,61.4905574 54.907022,60.6849836 54.4679011,60.0879344 L41.1132857,41.9512131 C40.596033,41.2499016 41.4762527,40.3744918 42.1814176,40.888918 L60.4177912,54.1705574 C61.0181209,54.6072787 61.8281209,54.0210492 61.5957033,53.3187541 L54.5302088,31.9656393 C54.2572418,31.1403934 55.3659231,30.5777705 55.8762527,31.284 L69.0933956,49.519082 C69.5285604,50.119082 70.480978,49.8112131 70.478011,49.071541 L70.392956,26.5931803 C70.389989,25.7236721 71.6183407,25.528918 71.8863626,26.3571148 L78.7896593,47.7623607 C79.0171319,48.4676066 80.019,48.4676066 80.2454835,47.7623607" id="Fill-79" fill="#FFEC00"></path>
                    <path d="M99.2154066,70.6763607 L96.2988132,70.6763607 C96.2988132,67.8170164 93.9598022,65.4907869 91.0837582,65.4907869 C88.2077143,65.4907869 85.8687033,67.8170164 85.8687033,70.6763607 L82.9521099,70.6763607 C82.9521099,66.2176721 86.6005714,62.5891475 91.0837582,62.5891475 C95.5679341,62.5891475 99.2154066,66.2176721 99.2154066,70.6763607" id="Fill-81" fill="#000000"></path>
                    <path d="M76.0837253,70.6763607 L73.1671319,70.6763607 C73.1671319,67.8170164 70.8281209,65.4907869 67.9510879,65.4907869 C65.076033,65.4907869 62.737022,67.8170164 62.737022,70.6763607 L59.8204286,70.6763607 C59.8204286,66.2176721 63.4679011,62.5891475 67.9510879,62.5891475 C72.4352637,62.5891475 76.0837253,66.2176721 76.0837253,70.6763607" id="Fill-83" fill="#000000"></path>
                    <polygon id="Fill-85" fill="#000000" points="82.5886484 81.580623 74.6478791 81.580623 79.4861209 64.8199672 82.288978 65.6196393 78.5208462 78.6799672 82.5886484 78.6799672"></polygon>
                    <path d="M79.130967,95.5777377 C68.4822857,95.5777377 59.8205275,86.9623279 59.8205275,76.3728197 L62.7371209,76.3728197 C62.7371209,85.362 70.0914066,92.677082 79.130967,92.677082 C88.1705275,92.677082 95.5248132,85.362 95.5248132,76.3728197 L98.4414066,76.3728197 C98.4414066,86.9623279 89.7796484,95.5777377 79.130967,95.5777377" id="Fill-87" fill="#000000"></path>
                </g>
            </g>
        </g>
    </g>
</svg>