<?xml version="1.0" encoding="UTF-8"?>
<svg width="178px" height="47px" viewBox="0 0 178 47" version="1.1" xmlns="http://www.w3.org/2000/svg" xmlns:xlink="http://www.w3.org/1999/xlink">
    <!-- Generator: Sketch 63.1 (92452) - https://sketch.com -->
    <title>Patch/Big_Coming_soon</title>
    <desc>Created with Sketch.</desc>
    <defs>
        <path d="M170.845432,46.4076 L170.845432,34.5714246 C175.062394,32.6559252 178,28.4233836 178,23.4986475 C178,18.5727441 175.062394,14.3402025 170.845432,12.4258704 L170.845432,0.4076 L8.47251513,0.4076 L8.47251513,11.9099346 C3.55974273,13.4810876 0,18.0731501 0,23.4986475 C0,28.9241449 3.55974273,33.5162074 8.47251513,35.0861932 L8.47251513,46.4076 L170.845432,46.4076 Z" id="path-1"></path>
    </defs>
    <g id="Symbols" stroke="none" stroke-width="1" fill="none" fill-rule="evenodd">
        <g id="Modulo/Destination" transform="translate(-1058.000000, -153.000000)">
            <g id="Patch/Big_Coming_soon" transform="translate(1058.000000, 140.000000)">
                <g id="Color/@green" stroke-width="1" fill-rule="evenodd" transform="translate(0.000000, 13.000000)">
                    <mask id="mask-2" fill="white">
                        <use xlink:href="#path-1"></use>
                    </mask>
                    <use id="Mask" fill="#EC7173" xlink:href="#path-1"></use>
                    <g id="Color/@violet" mask="url(#mask-2)" fill="#C7BAFF">
                        <g transform="translate(0.000000, -41.000000)" id="Rectangle">
                            <rect x="0" y="0" width="180" height="131"></rect>
                        </g>
                    </g>
                </g>
                <text id="COMING-SOON" font-family="Roobert-Heavy, Roobert" font-size="16.6863" font-weight="600" fill="#000000">
                    <tspan x="27.595005" y="42">COMING SOON</tspan>
                </text>
            </g>
        </g>
    </g>
</svg>