<?xml version="1.0" encoding="UTF-8"?>
<svg width="85px" height="85px" viewBox="0 0 85 85" version="1.1" xmlns="http://www.w3.org/2000/svg" xmlns:xlink="http://www.w3.org/1999/xlink">
    <!-- Generator: Sketch 64 (93537) - https://sketch.com -->
    <title>free-glass-wine</title>
    <desc>Created with Sketch.</desc>
    <defs>
        <polygon id="path-1" points="0 0.13 84.87 0.13 84.87 85 0 85"></polygon>
    </defs>
    <g id="free-glass-wine" stroke="none" stroke-width="1" fill="none" fill-rule="evenodd">
        <g id="Group-40" transform="translate(0.000000, -1.000000)">
            <g id="Group-3" transform="translate(0.000000, 0.870300)">
                <mask id="mask-2" fill="white">
                    <use xlink:href="#path-1"></use>
                </mask>
                <g id="Clip-2"></g>
                <path d="M-7.77631016e-05,42.3455 C0.1215,18.9085 19.2185,0.0095 42.6545,0.129922207 C66.0905,0.2515 84.9905,19.3485 84.8700778,42.7835 C84.7485,66.2205 65.6515,85.1205 42.2155,85.0000778 C18.7795,84.8775 -0.1205,65.7815 -7.77631016e-05,42.3455" id="Fill-1" fill="#FFEC00" mask="url(#mask-2)"></path>
            </g>
            <path d="M11.2017,55.0918 C13.9477,53.6378 16.3687,54.9028 17.5247,57.0858 C18.6337,59.1768 18.1767,61.2878 16.4197,62.3068 L15.3607,60.3068 C16.0877,59.7898 16.2717,58.9418 15.7657,57.9878 C15.1087,56.7458 13.7057,56.2378 12.2227,57.0238 C10.7407,57.8098 10.2587,59.3158 10.8977,60.5218 C11.3537,61.3838 12.5417,61.9038 13.1047,61.6058 C13.2297,61.5378 13.2747,61.4258 13.2137,61.3118 L12.4537,59.8738 L13.9467,59.0838 L15.1467,61.3478 C15.5777,62.1638 15.1427,62.9528 14.5457,63.2708 L11.2927,64.9928 L10.3447,63.1998 L11.5037,62.5848 C10.6247,62.7568 9.7167,62.2378 9.2047,61.2718 C8.1027,59.1918 8.4537,56.5478 11.2017,55.0918" id="Fill-4" fill="#000000"></path>
            <polygon id="Fill-6" fill="#000000" points="19.7984 61.0439 21.3914 62.7399 16.1984 67.6169 18.9024 70.4979 17.4634 71.8509 13.1644 67.2729"></polygon>
            <path d="M25.1226,72.705 L25.6926,70.268 L23.7366,71.831 L25.1226,72.705 Z M24.6546,74.684 L22.1496,73.102 L20.6836,74.282 L18.6496,72.997 L26.3766,67.119 L28.2426,68.299 L26.2526,77.8 L24.2306,76.522 L24.6546,74.684 Z" id="Fill-8" fill="#000000"></path>
            <path d="M28.5532,75.3183 L30.6522,76.0053 C30.4632,76.7503 30.8022,77.3813 31.5422,77.6253 C32.1982,77.8393 32.7182,77.6683 32.8762,77.1853 C33.3542,75.7293 28.6862,75.6633 29.8382,72.1423 C30.3212,70.6743 31.9242,70.0383 33.6892,70.6163 C35.6152,71.2473 36.5272,72.7623 35.9972,74.4633 L33.9232,73.7833 C34.0562,73.2113 33.7532,72.7143 33.0742,72.4923 C32.5322,72.3143 32.0882,72.4563 31.9622,72.8393 C31.4332,74.4573 36.2322,74.3743 35.0872,77.8683 C34.5482,79.5113 32.9162,80.1523 30.9292,79.5013 C28.9422,78.8493 28.0032,77.2033 28.5532,75.3183" id="Fill-10" fill="#000000"></path>
            <path d="M36.3052,77.7226 L38.5082,77.9046 C38.4972,78.6736 38.9752,79.2076 39.7512,79.2726 C40.4382,79.3286 40.9062,79.0416 40.9472,78.5356 C41.0742,77.0066 36.5172,78.0276 36.8212,74.3346 C36.9482,72.7926 38.3602,71.8016 40.2122,71.9536 C42.2332,72.1196 43.4732,73.3846 43.3522,75.1596 L41.1762,74.9826 C41.1712,74.3956 40.7632,73.9826 40.0492,73.9236 C39.4802,73.8756 39.0822,74.1176 39.0492,74.5196 C38.9092,76.2156 43.5592,75.0226 43.2562,78.6886 C43.1142,80.4106 41.6752,81.4136 39.5892,81.2416 C37.5032,81.0696 36.2092,79.6836 36.3052,77.7226" id="Fill-12" fill="#000000"></path>
            <path d="M54.0474,74.792 C53.6394,73.313 52.3704,72.476 51.0174,72.848 C49.6514,73.225 48.9874,74.594 49.3964,76.072 C49.8034,77.552 51.0724,78.389 52.4394,78.013 C53.7924,77.641 54.4544,76.271 54.0474,74.792 M47.1654,76.688 C46.4544,74.105 47.8724,71.664 50.5044,70.939 C53.1124,70.222 55.5684,71.596 56.2784,74.179 C56.9894,76.761 55.5834,79.197 52.9764,79.915 C50.3434,80.64 47.8754,79.27 47.1654,76.688" id="Fill-14" fill="#000000"></path>
            <polygon id="Fill-16" fill="#000000" points="55.1255 69.4648 60.5865 66.1088 61.6205 67.7918 58.1335 69.9348 58.9775 71.3098 61.7245 69.6208 62.7585 71.3048 60.0115 72.9918 61.8625 76.0048 59.8915 77.2158"></polygon>
            <polygon id="Fill-18" fill="#000000" points="62.3638 65.2841 63.7068 63.3671 69.2518 65.3951 65.5408 60.7511 66.6518 59.1651 72.2938 61.0541 68.4998 56.5241 69.8348 54.6201 75.7708 61.9981 74.4738 63.8501 69.0578 62.0241 72.6248 66.4891 71.3358 68.3311"></polygon>
            <polygon id="Fill-20" fill="#000000" points="69.2339 54.2168 70.0179 52.0268 78.5859 55.0918 77.8009 57.2818"></polygon>
            <polygon id="Fill-22" fill="#000000" points="70.5191 51.2343 70.8431 48.8263 76.6531 46.3683 71.2701 45.6453 71.5781 43.3523 80.5911 44.5633 80.2681 46.9713 74.4581 49.4293 79.8421 50.1523 79.5351 52.4433"></polygon>
            <polygon id="Fill-24" fill="#000000" points="71.4468 42.664 70.5658 36.314 72.5228 36.042 73.0878 40.101 74.5818 39.893 74.1378 36.698 76.0948 36.427 76.5388 39.621 78.1878 39.393 77.6038 35.193 79.5628 34.921 80.4628 41.414"></polygon>
            <polygon id="Fill-26" fill="#000000" points="11.4819 19.6299 17.2269 13.5009 19.1159 15.2729 15.4459 19.1879 16.9869 20.6329 19.8769 17.5509 21.7659 19.3219 18.8769 22.4049 22.2569 25.5749 20.1829 27.7869"></polygon>
            <path d="M25.855,14.1045 L27.634,13.2055 C28.501,12.7675 28.621,11.9825 28.29,11.3285 C27.959,10.6745 27.256,10.3035 26.39,10.7415 L24.61,11.6405 L25.855,14.1045 Z M34.768,17.0835 L32.046,18.4585 L30.368,15.9675 C29.991,15.4135 29.334,15.2475 28.742,15.5475 L27.023,16.4165 L28.868,20.0655 L26.146,21.4415 L20.766,10.7965 L25.45,8.4295 C27.792,7.2475 29.869,8.0305 30.875,10.0215 C31.39,11.0415 31.28,11.9555 30.727,12.7505 C31.595,12.8835 32.36,13.3765 32.889,14.1965 L34.768,17.0835 Z" id="Fill-28" fill="#000000"></path>
            <polygon id="Fill-30" fill="#000000" points="34.0269 5.2011 42.3649 4.2011 42.6729 6.7711 37.3459 7.4111 37.5829 9.3721 41.7759 8.8691 42.0849 11.4391 37.8899 11.9431 38.1509 14.1071 43.6639 13.4451 43.9719 16.0161 35.4479 17.0401"></polygon>
            <polygon id="Fill-32" fill="#000000" points="46.8071 4.4677 55.0171 6.2157 54.4781 8.7467 49.2311 7.6307 48.8211 9.5627 52.9501 10.4427 52.4111 12.9737 48.2811 12.0927 47.8281 14.2257 53.2561 15.3817 52.7171 17.9127 44.3231 16.1247"></polygon>
            <polygon id="Fill-34" fill="#000000" points="55.5864 61.247 41.5364 65.442 40.6784 62.568 54.7284 58.372"></polygon>
            <path d="M31.3882,30.8047 L33.3912,43.1997 C33.8122,46.0107 35.4712,48.3797 37.9472,49.7167 C38.6912,50.1177 39.4852,50.4107 40.3052,50.5867 C42.3182,51.0167 44.1282,51.9877 45.5762,53.3457 C46.0392,51.4157 47.0212,49.6127 48.4662,48.1507 C49.0592,47.5527 49.5622,46.8717 49.9642,46.1277 C51.3022,43.6527 51.3902,40.7607 50.2072,38.1957 L45.0762,26.7157 L31.3882,30.8047 Z M49.5702,61.4777 L46.6962,62.3367 L45.7312,59.1067 C44.8862,56.2787 42.5662,54.1377 39.6772,53.5207 C38.5792,53.2847 37.5172,52.8937 36.5232,52.3567 C33.2062,50.5667 30.9862,47.3967 30.4262,43.6597 L28.0072,28.6837 L46.7422,23.0877 L52.9392,36.9547 C54.5132,40.3697 54.3942,44.2397 52.6042,47.5527 C52.0652,48.5497 51.3912,49.4597 50.6002,50.2597 C48.5252,52.3587 47.7612,55.4217 48.6072,58.2527 L49.5702,61.4777 Z" id="Fill-36" fill="#000000"></path>
            <polygon id="Fill-38" fill="#000000" points="51.0249 35.375 31.7359 41.136 30.8769 38.262 50.1659 32.501"></polygon>
        </g>
    </g>
</svg>