<?xml version="1.0" encoding="UTF-8"?>
<svg width="16px" height="16px" viewBox="0 0 16 16" version="1.1" xmlns="http://www.w3.org/2000/svg" xmlns:xlink="http://www.w3.org/1999/xlink">
    <title>chat</title>
    <g id="Page-1" stroke="none" stroke-width="1" fill="none" fill-rule="evenodd">
        <g id="chat" fill="#000000" fill-rule="nonzero">
            <path d="M11.1052466,0.576606732 C12.4074346,1.08220358 13.5833009,1.92396855 14.4554578,3.02122129 C15.3262708,4.11309534 15.8772482,5.4631465 15.9793806,6.8602612 C16.0909199,8.27082262 15.746895,9.70962217 15.0212175,10.9225167 C14.3896093,11.9874973 13.4838563,12.8830492 12.43028,13.5298367 C11.2221614,14.2734405 9.82187254,14.690289 8.40680141,14.7548333 C7.49836068,14.7965181 6.58320071,14.698357 5.70701231,14.456316 L2.53956439,16 L2.53956439,16 L3.08382252,13.2057706 L3.08382252,13.2057706 C1.9738047,12.4097245 1.06939551,11.3178504 0.539919705,10.0538583 C0.135421688,9.09779619 -0.0473415356,8.04895167 0.0104438954,7.01220919 C0.0789801043,5.64467728 0.577547428,4.31076219 1.39460655,3.2161988 C2.23719876,2.07860588 3.40365816,1.1938114 4.70853382,0.65190839 C6.72564852,-0.19120125 9.06797424,-0.216750027 11.1052466,0.576606732 Z" id="Shape"></path>
        </g>
    </g>
</svg>