<?xml version="1.0" encoding="UTF-8"?>
<svg width="50px" height="35px" viewBox="0 0 50 35" version="1.1" xmlns="http://www.w3.org/2000/svg" xmlns:xlink="http://www.w3.org/1999/xlink">
    <!-- Generator: Sketch 64 (93537) - https://sketch.com -->
    <title>Path</title>
    <desc>Created with Sketch.</desc>
    <g id="Page-1" stroke="none" stroke-width="1" fill="none" fill-rule="evenodd">
        <g id="arrow-prev" fill="#FFFFFF" fill-rule="nonzero">
            <polygon id="Path" transform="translate(25.000000, 17.500000) rotate(-180.000000) translate(-25.000000, -17.500000) " points="9.5306502e-16 14.3778111 39.2983778 14.3773913 28.7545788 3.80434783 32.548404 -7.10542736e-15 50 17.5 32.548404 35 28.7545788 31.1956522 39.2983778 20.6226087 0 20.6221889"></polygon>
        </g>
    </g>
</svg>