<?xml version="1.0" encoding="UTF-8"?>
<svg width="18px" height="23px" viewBox="0 0 18 23" version="1.1" xmlns="http://www.w3.org/2000/svg" xmlns:xlink="http://www.w3.org/1999/xlink">
    <!-- Generator: Sketch 64 (93537) - https://sketch.com -->
    <title>people</title>
    <desc>Created with Sketch.</desc>
    <g id="people" stroke="none" stroke-width="1" fill="none" fill-rule="evenodd">
        <path d="M11.4252,9.08088 L11.4252,14.9400627 L9.2256,16.9896277 L9.2184,23.08088 L2.2044,23.08088 L2.202,16.9896277 L-3.35731443e-13,14.9400627 L-3.35731443e-13,9.08088 L11.4252,9.08088 Z M17.99952,7.34532 L17.99952,13.46532 L15.80112,15.60612 L15.79392,21.96852 L11.11752,21.96852 L11.12352,18.14412 L13.32312,16.00212 L13.32312,7.34532 L17.99952,7.34532 Z M5.71404,1.737 C7.36284,1.737 8.70324,3.0774 8.70324,4.7238 C8.70324,6.3762 7.36284,7.7226 5.71404,7.7226 C4.06164,7.7226 2.71764,6.3762 2.71764,4.7238 C2.71764,3.0774 4.06164,1.737 5.71404,1.737 Z M12.28944,-8.70414851e-14 C13.93824,-8.70414851e-14 15.27864,1.3416 15.27864,2.988 C15.27864,4.6404 13.93824,5.9856 12.28944,5.9856 C11.63904,5.9856 11.03784,5.7744 10.54704,5.4216 C10.57944,5.1924 10.60224,4.962 10.60224,4.7244 C10.60224,3.5976 10.21464,2.5632 9.57264,1.7352 C10.04904,0.7128 11.08584,-8.70414851e-14 12.28944,-8.70414851e-14 Z" id="Shape" fill="#050505"></path>
    </g>
</svg>