<?xml version="1.0" encoding="UTF-8"?>
<svg width="122px" height="122px" viewBox="0 0 122 122" version="1.1" xmlns="http://www.w3.org/2000/svg" xmlns:xlink="http://www.w3.org/1999/xlink">
    <!-- Generator: Sketch 63.1 (92452) - https://sketch.com -->
    <title>tiktok</title>
    <desc>Created with Sketch.</desc>
    <g id="tiktok" stroke="none" stroke-width="1" fill="none" fill-rule="evenodd">
        <path d="M60.8199,-0.0001 C94.4009,-0.0001 121.6299,27.2309 121.6299,60.8199 C121.6299,94.4009 94.4009,121.6299 60.8199,121.6299 C27.2309,121.6299 -0.0001,94.4009 -0.0001,60.8199 C-0.0001,27.2309 27.2309,-0.0001 60.8199,-0.0001 Z M74.4299,29.2999 L64.5399,29.2999 C63.5709,29.2999 62.7824,30.048975 62.7059725,30.9992624 L62.6999,31.1509 L62.6999,71.6999 C62.6999,75.5899 59.5299,78.7499 55.6399,78.7499 C51.7499,78.7499 48.5899,75.5899 48.5899,71.6999 C48.5899,67.8099 51.7499,64.6399 55.6399,64.6399 C56.6113286,64.6399 57.4104215,63.8870655 57.4843228,62.9342527 L57.4899,62.7899 L57.4899,52.9009 C57.4899,51.8799 56.6599,51.0599 55.6399,51.0599 C44.2599,51.0599 35.0099,60.3199 35.0099,71.6999 C35.0099,83.0799 44.2599,92.3299 55.6399,92.3299 C66.9037776,92.3299 76.0906997,83.2677124 76.277015,72.0475944 L76.2799,71.6999 L76.2799,53.7499 C79.9599,55.7099 84.0499,56.7309 88.2799,56.7309 C89.2513286,56.7309 90.0504215,55.9780655 90.1243228,55.0243888 L90.1299,54.8799 L90.1299,44.9899 C90.1299,43.9699 89.2999,43.1509 88.2799,43.1509 C81.6599,43.1509 76.2799,37.7599 76.2799,31.1509 C76.2799,30.178519 75.5270655,29.3793807 74.5742527,29.3054773 L74.4299,29.2999 Z" id="Shape" fill="#000000"></path>
    </g>
</svg>