<?xml version="1.0" encoding="UTF-8"?>
<svg width="16px" height="13px" viewBox="0 0 16 13" version="1.1" xmlns="http://www.w3.org/2000/svg" xmlns:xlink="http://www.w3.org/1999/xlink">
    <!-- Generator: Sketch 64 (93537) - https://sketch.com -->
    <title>twitter</title>
    <desc>Created with Sketch.</desc>
    <defs>
        <path d="M7.79580261,3.28176265 C7.79580261,3.53813264 7.82416336,3.7899651 7.88088486,4.02931937 L7.88088486,4.02931937 C5.15258083,3.89319372 2.73397618,2.58638743 1.11514464,0.60008726 L1.11514464,0.60008726 C0.831537153,1.08560209 0.66931367,1.6482548 0.66931367,2.24947644 L0.66931367,2.24947644 C0.66931367,3.38839442 1.2501418,4.3934555 2.12932501,4.98219895 L2.12932501,4.98219895 C1.59160522,4.96518325 1.08564946,4.81657941 0.643221781,4.57155323 L0.643221781,4.57155323 C0.642087351,4.58516579 0.642087351,4.59877836 0.642087351,4.61239092 L0.642087351,4.61239092 C0.642087351,6.20279232 1.77424844,7.52888307 3.27623369,7.83176265 L3.27623369,7.83176265 C2.99943279,7.90663176 2.71015315,7.94633508 2.41066364,7.94633508 L2.41066364,7.94633508 C2.19965967,7.94633508 1.99432785,7.92591623 1.79466818,7.88734729 L1.79466818,7.88734729 C2.2121384,9.19188482 3.42370959,10.1413613 4.8598979,10.167452 L4.8598979,10.167452 C3.73681225,11.0477312 2.32104368,11.571815 0.783891095,11.571815 L0.783891095,11.571815 C0.519568917,11.571815 0.257515598,11.5570681 0,11.5264398 L0,11.5264398 C1.45433919,12.4577661 3.17867272,13 5.03119682,13 L5.03119682,13 C11.0697674,13 14.3709586,7.99851658 14.3709586,3.6617801 L14.3709586,3.6617801 C14.3709586,3.51998255 14.3675553,3.37818499 14.3618832,3.23752182 L14.3618832,3.23752182 C15.0028361,2.77469459 15.5598412,2.19729494 16,1.5382199 L16,1.5382199 C15.4100964,1.80026178 14.7782189,1.97495637 14.1145774,2.05549738 L14.1145774,2.05549738 C14.7929665,1.6482548 15.3136699,1.00506108 15.5587067,0.239354276 L15.5587067,0.239354276 C14.923426,0.615968586 14.2212138,0.889354276 13.4736245,1.03568935 L13.4736245,1.03568935 C12.8746455,0.398167539 12.0215542,0 11.0777085,0 L11.0777085,0 C9.26375496,0 7.79580261,1.46902269 7.79580261,3.28176265 L7.79580261,3.28176265 Z" id="path-1"></path>
    </defs>
    <g id="twitter" stroke="none" stroke-width="1" fill="none" fill-rule="evenodd">
        <mask id="mask-2" fill="white">
            <use xlink:href="#path-1"></use>
        </mask>
        <use id="Clip-5" fill="#000000" xlink:href="#path-1"></use>
    </g>
</svg>