<?xml version="1.0" encoding="UTF-8"?>
<svg width="130px" height="42px" viewBox="0 0 130 42" version="1.1" xmlns="http://www.w3.org/2000/svg" xmlns:xlink="http://www.w3.org/1999/xlink">
    <title>Group</title>
    <defs>
        <polygon id="path-1" points="0 0.144269065 35.4955128 0.144269065 35.4955128 40.9994 0 40.9994"></polygon>
        <polygon id="path-3" points="0 0.0174857143 21.9383132 0.0174857143 21.9383132 26.2285714 0 26.2285714"></polygon>
        <polygon id="path-5" points="0 26 80 26 80 0 0 0"></polygon>
    </defs>
    <g id="Page-1" stroke="none" stroke-width="1" fill="none" fill-rule="evenodd">
        <g id="Group">
            <g id="Group-26" transform="translate(0.000000, 0.855700)">
                <path d="M6.5526,13.4673 C6.1236,13.4673 5.7296,13.6833 5.4986,14.0443 C5.3196,14.3243 5.2596,14.6593 5.3316,14.9863 C5.4036,15.3113 5.5976,15.5903 5.8796,15.7703 L16.3176,22.4383 L16.2086,33.5993 C16.2026,34.2873 16.7606,34.8533 17.4576,34.8613 C18.1416,34.8613 18.7026,34.3043 18.7076,33.6213 L18.8146,22.4983 L30.1376,15.3153 C30.4196,15.1363 30.6146,14.8593 30.6876,14.5323 C30.7616,14.2063 30.7026,13.8713 30.5236,13.5913 C30.2936,13.2273 29.8996,13.0103 29.4696,13.0103 C29.2326,13.0103 29.0016,13.0773 28.8006,13.2053 L17.6136,20.3013 L7.2236,13.6633 C7.0226,13.5353 6.7906,13.4673 6.5526,13.4673" id="Fill-21" fill="#EFDE0C" fill-rule="nonzero"></path>
                <g id="Fill-23-Clipped">
                    <mask id="mask-2" fill="white">
                        <use xlink:href="#path-1"></use>
                    </mask>
                    <g id="path-1"></g>
                    <path d="M32.8515,28.6704 L17.6535,38.1084 L2.6385,27.9444 L2.6385,12.0434 L17.5475,2.9934 L32.7365,11.6304 L32.8515,28.6704 Z M35.3685,10.8494 C35.3645,10.3804 35.1095,9.9444 34.7035,9.7134 L18.1785,0.3164 C17.7635,0.0804 17.2515,0.0874 16.8415,0.3354 L0.6355,10.1734 C0.2435,10.4104 -0.0005,10.8434 -0.0005,11.3014 L-0.0005,28.6454 C-0.0005,29.0824 0.2165,29.4904 0.5805,29.7364 L16.8825,40.7734 C17.1015,40.9214 17.3565,40.9994 17.6225,40.9994 C17.8665,40.9994 18.1065,40.9314 18.3175,40.8024 L34.8705,30.5224 C35.2645,30.2784 35.4975,29.8574 35.4955254,29.3924 L35.3685,10.8494 Z" id="Fill-23" fill="#000000" fill-rule="nonzero" mask="url(#mask-2)"></path>
                </g>
            </g>
            <g id="Group-9" transform="translate(50.000000, 8.000000)">
                <g id="Group-3">
                    <mask id="mask-4" fill="white">
                        <use xlink:href="#path-3"></use>
                    </mask>
                    <g id="Clip-2"></g>
                    <path d="M10.8792605,22.538982 L10.9154447,22.538982 C10.9870895,22.538982 11.0590237,22.514828 11.1306684,22.4657791 C11.2027474,22.4170265 11.2384974,22.3678294 11.2384974,22.3186323 C11.3820763,21.7798353 11.4541553,21.3628454 11.4541553,21.0688483 C11.4541553,20.7010556 11.3938,20.2910304 11.2742474,19.8371428 C11.1542605,19.383996 11.0708921,19.0839234 11.0228395,18.9364803 C10.9988132,18.8631292 10.9566947,18.7714033 10.8973526,18.6610062 C10.8371421,18.5506091 10.7954579,18.458735 10.7718658,18.3855321 L10.6640368,18.3855321 L10.3768789,19.8189161 C10.3768789,19.9905132 10.3642868,20.1130614 10.3406947,20.1867089 C10.2205632,20.554057 10.1612211,20.8852483 10.1612211,21.1792454 C10.1612211,21.5465936 10.2450237,21.9022353 10.4126289,22.2449849 C10.4842737,22.3919834 10.6395763,22.4902294 10.8792605,22.538982 M10.6640368,26.2152793 C9.41886579,26.0682808 8.42539211,25.492734 7.68390526,24.48775 C7.42033947,24.1445558 7.18108947,23.5931631 6.96543158,22.8334236 C6.86990526,22.4170265 6.82185263,21.9634353 6.82185263,21.4732425 L6.85818158,20.1130614 C6.85818158,19.8189161 6.90565526,19.482242 7.00176053,19.1020018 C7.09685263,18.7226508 7.16893158,18.4467321 7.21683947,18.275135 L7.43249737,17.208951 L8.40194474,13.9370478 C8.44941842,13.8150924 8.51512895,13.6740212 8.59936579,13.5145752 C8.68316842,13.3554256 8.72485263,13.2145026 8.72485263,13.0915098 L8.72485263,12.9817055 C8.72485263,12.7609113 8.65335263,12.5035156 8.50977368,12.2095185 C8.22247105,11.5723273 7.87510263,10.8859389 7.46824737,10.150798 C7.42033947,10.0037994 7.13260263,9.44025559 6.60677368,8.45987012 L6.28328684,7.65108174 C6.25926053,7.67568029 6.22944474,7.6876832 6.19355,7.6876832 C6.1578,7.6876832 6.13970789,7.70072339 6.13970789,7.72487738 L5.8883,8.90101395 L5.49374737,11.6947273 L5.45756316,11.8051244 C5.40951053,12.3931185 5.31398421,13.2515486 5.17026053,14.378488 L4.59594474,17.9073423 L4.34453684,19.5982701 L4.05737895,22.0979863 L3.62664211,25.3331399 C3.60203684,25.4064909 3.55456316,25.4862139 3.48291842,25.5720125 C3.41098421,25.6582556 3.33933947,25.7135282 3.26740526,25.737534 L-2.89473684e-05,25.737534 L0.179444737,24.7079515 C0.179444737,24.6593471 0.202892105,24.5855515 0.251378947,24.48775 C0.346471053,23.5319631 0.430852632,22.8580222 0.502786842,22.4657791 C0.574431579,21.7798353 0.705707895,20.9096987 0.897773684,19.8556658 L0.897773684,19.6719176 L1.22082632,17.1355999 L1.65156316,14.0106953 L2.0823,10.9229849 L2.54936579,7.76147884 L2.76458947,6.18050354 L2.98010263,4.52676988 C3.07577368,3.86498005 3.15957632,3.33803768 3.23151053,2.94579458 L3.66239211,0.335681259 C3.68583947,0.213725811 3.73982632,0.133410073 3.82406316,0.0968086199 C3.90743158,0.0602071671 4.02162895,0.0416841646 4.16520789,0.0416841646 L6.03231316,0.0416841646 L6.10395789,0.0416841646 C6.24753684,0.0416841646 6.36708947,0.0968086199 6.46319474,0.207205714 C6.55828684,0.317602809 6.66611579,0.482679806 6.78610263,0.703473995 L7.7913,2.76204639 L8.79693158,4.82076697 C9.25126053,5.7765539 9.53841842,6.38914663 9.65840526,6.65869337 C9.73048421,6.80569191 10.0054842,7.43088029 10.4842737,8.53322121 C10.5078658,8.50906722 10.5617079,8.47246576 10.6459447,8.42326867 C10.7297474,8.37407157 10.7837342,8.32546722 10.8077605,8.27627012 C11.4296947,6.80569191 11.9084842,5.70275826 12.2436947,4.96776552 C12.6263789,4.03657714 12.9258395,3.35018877 13.1414974,2.90904494 C13.5482079,1.97785656 13.9191684,1.15691709 14.2543789,0.446078354 C14.42155,0.103328717 14.6729579,-0.0316669249 15.0086026,0.0416841646 C15.1283,0.0661345278 15.2957605,0.0782856174 15.5114184,0.0782856174 C15.8221684,0.0782856174 16.0614184,0.0661345278 16.2294579,0.0416841646 C16.3009579,0.0416841646 16.3911289,0.0360531719 16.4985237,0.0234575303 C16.6063526,0.0114546247 16.7322737,0.0174806736 16.8758526,0.0416841646 C16.9473526,0.0416841646 17.0430237,0.103328717 17.1630105,0.225728717 C17.2581026,0.519725811 17.3184579,0.740075448 17.3423395,0.887073995 L17.6296421,2.61504785 L18.2039579,5.55575971 L18.4553658,6.76909046 C18.5034184,7.18593211 18.5989447,7.78607738 18.7425237,8.57026722 L19.1017605,10.2611951 C19.1738395,10.5551922 19.2572079,10.996336 19.3531684,11.5843302 L19.6403263,13.3489055 C19.6879447,13.6680938 19.8198,14.2194866 20.0353132,15.0032319 L20.0353132,15.1502304 L20.3226158,17.0985539 L20.6818526,18.7161307 C20.7533526,19.0347263 20.8371553,19.4512716 20.9332605,19.9660629 L21.2204184,21.6568425 L21.7947342,24.5243515 C21.8183263,24.7205471 21.8423526,24.9228183 21.8663789,25.1310169 C21.8898263,25.3392154 21.9142868,25.5414866 21.9383132,25.737534 L18.49155,25.737534 L18.2760368,24.7447011 C17.9648526,23.2504135 17.7609184,22.2328338 17.6653921,21.6935922 L17.3782342,20.0392658 C17.3542079,19.8189161 17.2944316,19.487873 17.1987605,19.0468774 L16.9832474,18.0909423 L16.9473526,18.0177394 C16.8513921,17.184797 16.7680237,16.5600532 16.6959447,16.142767 L16.4808658,15.2606275 L16.3009579,14.5254866 C16.2769316,14.5014808 16.2652079,14.4642866 16.2652079,14.4152377 L16.1573789,13.6063011 C16.1333526,13.3615011 16.0735763,12.9695544 15.97805,12.4303127 L15.4035895,9.74640378 L15.2238263,8.68066431 C15.1998,8.41126576 15.1400237,8.06807157 15.0444974,7.65108174 C14.9007737,7.67568029 14.7988789,7.73732484 14.7391026,7.83482993 C14.6793263,7.93307593 14.6317079,8.04999312 14.5955237,8.18395148 C14.5597737,8.31894712 14.5176553,8.42326867 14.4700368,8.49661976 C14.3264579,8.76646286 14.1647868,9.09765414 13.9853132,9.48900814 C13.80555,9.88139942 13.6800632,10.1633936 13.6079842,10.3345462 L13.0694184,11.6581258 C13.0213658,11.7563718 12.9556553,11.8787718 12.8724316,12.0257704 C12.7881947,12.1729171 12.7342079,12.2957616 12.7106158,12.3931185 C12.6621289,12.6385113 12.6386816,12.8101084 12.6386816,12.9079098 L12.6748658,13.2757026 C12.6984579,13.3985471 12.7518658,13.5330982 12.8361026,13.6800968 C12.9199053,13.8270953 12.9856158,13.9499399 13.0336684,14.0474449 L13.3208263,14.8562333 C13.6079842,15.6408677 13.8113395,16.241013 13.9314711,16.6574101 C14.1701421,17.3193481 14.35005,17.9319408 14.4700368,18.4953365 L14.6136158,19.3408745 C14.7571947,20.0272629 14.8524316,20.5420541 14.9007737,20.8852483 L14.9366684,21.4732425 C14.9366684,22.0372309 14.8405632,22.637228 14.6493658,23.2745675 C14.2902737,24.2795515 13.7394053,25.0271399 12.9979184,25.516888 C12.2078,26.0561297 11.4296947,26.289075 10.6640368,26.2152793" id="Fill-1" fill="#000000" mask="url(#mask-4)"></path>
                </g>
                <mask id="mask-6" fill="white">
                    <use xlink:href="#path-5"></use>
                </mask>
                <g id="Clip-5"></g>
                <polygon id="Fill-4" fill="#000000" mask="url(#mask-6)" points="25 26 29 26 29 0 25 0"></polygon>
                <polygon id="Fill-6" fill="#000000" mask="url(#mask-6)" points="34 26 34 0 38.1205139 0 38.1205139 22.3117268 45 22.3117268 45 26"></polygon>
                <path d="M55.5185185,6.28107502 L53.2495127,17.1630706 L57.7875244,17.1630706 L55.5185185,6.28107502 Z M59.6477733,26 L58.5689009,20.8513438 L52.4310991,20.8513438 L51.3897136,26 L47,26 L53.5099715,0 L57.5645524,0 L64,26 L59.6477733,26 Z" id="Fill-7" fill="#000000" mask="url(#mask-6)"></path>
                <polygon id="Fill-8" fill="#000000" mask="url(#mask-6)" points="76.3426858 26 70.1372232 10.5534425 70.1372232 26 66 26 66 0 69.6940929 0 75.8626279 15.4464103 75.8626279 0 80 0 80 26"></polygon>
            </g>
        </g>
    </g>
</svg>