{
    "key": "group_5f03520965243",
    "title": "Home details",
    "fields": [
        {
            "key": "field_5f03520b21261",
            "label": "<span class=\"dashicons dashicons-video-alt3\"><\/span> Video",
            "name": "",
            "type": "tab",
            "instructions": "",
            "required": 0,
            "conditional_logic": 0,
            "wrapper": {
                "width": "",
                "class": "",
                "id": ""
            },
            "placement": "left",
            "endpoint": 0
        },
        {
            "key": "field_5f03520b2126e",
            "label": "Format MP4 video",
            "name": "video_mp4",
            "type": "file",
            "instructions": "",
            "required": 1,
            "conditional_logic": 0,
            "wrapper": {
                "width": "",
                "class": "",
                "id": ""
            },
            "return_format": "url",
            "library": "all",
            "min_size": "",
            "max_size": "",
            "mime_types": "mp4"
        },
        {
            "key": "field_5f043347ccd06",
            "label": "Format WebM",
            "name": "video_webm",
            "type": "file",
            "instructions": "",
            "required": 1,
            "conditional_logic": 0,
            "wrapper": {
                "width": "",
                "class": "",
                "id": ""
            },
            "return_format": "url",
            "library": "all",
            "min_size": "",
            "max_size": "",
            "mime_types": "webm"
        }
    ],
    "location": [
        [
            {
                "param": "page",
                "operator": "==",
                "value": "2"
            }
        ]
    ],
    "menu_order": 0,
    "position": "normal",
    "style": "default",
    "label_placement": "top",
    "instruction_placement": "label",
    "hide_on_screen": "",
    "active": 1,
    "description": "",
    "modified": 1594114457
}