<?xml version="1.0" encoding="UTF-8"?>
<svg width="120px" height="120px" viewBox="0 0 120 120" version="1.1" xmlns="http://www.w3.org/2000/svg" xmlns:xlink="http://www.w3.org/1999/xlink">
    <!-- Generator: Sketch 64 (93537) - https://sketch.com -->
    <title>Patch/Small_toogood Copy 7</title>
    <desc>Created with Sketch.</desc>
    <defs>
        <path d="M0.0133846154,62.5624615 C0.765692308,29.4332308 28.2272308,3.18553846 61.3564615,3.93784615 C94.4856923,4.68553846 120.733385,32.1470769 119.985692,65.2763077 C119.233385,98.4055385 91.7718462,124.653231 58.6426154,123.905538 C25.5133846,123.157846 -0.734307692,95.6916923 0.0133846154,62.5624615" id="path-1"></path>
        <polygon id="path-3" points="0 124.615385 120 124.615385 120 4.61538462 0 4.61538462"></polygon>
    </defs>
    <g id="Layout" stroke="none" stroke-width="1" fill="none" fill-rule="evenodd">
        <g id="00_10_Corporate_Group-Bookings" transform="translate(-198.000000, -1459.000000)">
            <g id="icon/26px_lenzuola" transform="translate(198.000000, 1459.000000)">
                <g id="Group-9" transform="translate(0.000000, -4.615385)">
                    <g id="Group-3">
                        <g id="Color/@blue" transform="translate(0.000000, 0.695077)">
                            <mask id="mask-2" fill="white">
                                <use xlink:href="#path-1"></use>
                            </mask>
                            <use id="Mask" fill="#FFFFFF" xlink:href="#path-1"></use>
                            <g id="Color/@violet" mask="url(#mask-2)" fill="#C7BAFF">
                                <g transform="translate(-9.230769, -36.923077)" id="Rectangle">
                                    <rect x="0" y="0" width="230.769231" height="230.769231"></rect>
                                </g>
                            </g>
                        </g>
                    </g>
                    <path d="M36.7472308,102.614308 L83.2472308,102.614308 L83.2472308,55.6989231 C82.1303077,56.4973846 50.4272308,68.9450769 49.3103077,69.7435385 C49.2041538,69.8173846 36.8487692,56.8527692 36.7472308,56.9266154 L36.7472308,102.614308 Z" id="Fill-4" fill="#000000"></path>
                    <mask id="mask-4" fill="white">
                        <use xlink:href="#path-3"></use>
                    </mask>
                    <g id="Clip-7"></g>
                    <polygon id="Fill-6" fill="#000000" mask="url(#mask-4)" points="45.6369231 43.5138462 74.1553846 43.5138462 74.1553846 26.6123077 45.6369231 26.6123077"></polygon>
                    <polygon id="Fill-8" fill="#000000" mask="url(#mask-4)" points="77.0644615 32.5181538 77.0644615 46.9689231 42.5506154 46.9689231 42.5506154 32.5181538 36.7490769 32.5181538 36.7490769 51.6258462 49.7183077 65.0566154 83.2490769 51.6258462 83.2536923 51.6258462 83.2536923 32.5181538"></polygon>
                </g>
            </g>
        </g>
    </g>
</svg>