<?xml version="1.0" encoding="UTF-8"?>
<svg width="118px" height="118px" viewBox="0 0 118 118" version="1.1" xmlns="http://www.w3.org/2000/svg" xmlns:xlink="http://www.w3.org/1999/xlink">
    <title>cooking</title>
    <g id="cooking" stroke="none" stroke-width="1" fill="none" fill-rule="evenodd">
        <g id="Group-36" transform="translate(6.000000, 6.000000)" fill-rule="nonzero">
            <g id="Path" transform="translate(6.805000, 6.805000)" fill="#FFEA00">
                <path d="M10.208,27.221 C4.578,27.221 0,21.115 0,13.611 C0,6.107 4.578,0 10.208,0 C15.838,0 20.416,6.106 20.416,13.611 C20.416,21.116 15.838,27.221 10.208,27.221 Z"></path>
            </g>
            <g id="Group" transform="translate(41.533000, 1.701000)" fill="#FFEA00">
                <path d="M14.611,17.013 L14.611,3.4 C14.611,1.52085114 16.1343511,-0.0025 18.0135,-0.0025 C19.8926489,-0.0025 21.416,1.52085114 21.416,3.4 L21.416,17.013 C21.416,18.8921489 22.9393511,20.4155 24.8185,20.4155 C26.6976489,20.4155 28.221,18.8921489 28.221,17.013 L28.221,-4.33680869e-19 L29.921,-4.33680869e-19 L31.621,2.268 C33.8286475,5.213333 35.0216492,8.79514498 35.0210003,12.476 L35.0210003,20.416 C35.0210003,29.8122966 27.4037966,37.4295 18.0075,37.4295 C8.61120341,37.4295 0.993999735,29.8122966 0.993999735,20.416 L0.993999735,12.476 C0.993350821,8.79514498 2.18635246,5.213333 4.394,2.268 L6.1,-4.33680869e-19 L7.8,-4.33680869e-19 L7.8,17.013 C7.8,18.8921489 9.32335114,20.4155 11.2025,20.4155 C13.0816489,20.4155 14.605,18.8921489 14.605,17.013 L14.611,17.013 Z" id="Path"></path>
            </g>
            <g id="Group" fill="#000000">
                <path d="M17.013,0 C7.632,0 0,9.158 0,20.416 C0,29.237 4.7,36.747 11.237,39.6 L8.506,96.981 C8.52809139,101.678734 12.3542659,105.469091 17.052,105.447096 C21.7497341,105.424909 25.5400914,101.598734 25.518,96.901 L22.789,39.6 C29.331,36.752 34.026,29.242 34.026,20.421 C34.027,9.158 26.394,0 17.013,0 Z M22.113,96.976 C22.1272906,98.7998408 21.1674882,100.492763 19.595141,101.41706 C18.0227938,102.341356 16.0767788,102.356604 14.490141,101.45706 C12.9035032,100.557515 11.9172906,98.8798408 11.903,97.056 L14.6,40.6 C15.3979323,40.7458532 16.2068852,40.8231353 17.018,40.831 C17.8291148,40.8231353 18.6380677,40.7458532 19.436,40.6 L22.113,96.976 Z M17.013,37.429 C9.513,37.429 3.402,29.797 3.402,20.416 C3.402,11.035 9.509,3.4 17.013,3.4 C24.517,3.4 30.624,11.032 30.624,20.413 C30.624,29.794 24.518,37.429 17.013,37.429 Z" id="Shape"></path>
                <path d="M65.978,47.835 C66.2234371,47.2315348 66.3504139,46.5864653 66.352,45.935 L66.352,37.709 C65.2599645,38.188957 64.1203173,38.5523034 62.952,38.793 L62.952,45.94 C62.952,46.8788841 62.1908841,47.64 61.252,47.64 L57.852,47.64 C56.9131159,47.64 56.152,46.8788841 56.152,45.94 L56.152,38.789 C54.9834776,38.5490878 53.8437487,38.1857154 52.752,37.705 L52.752,45.936 C52.753611,46.5874629 52.8805869,47.2325277 53.126,47.836 C50.9011967,48.4287336 49.3494285,50.4386155 49.339,52.741 L49.339,95.274 C49.339,100.911723 53.9092773,105.482 59.547,105.482 C65.1847227,105.482 69.755,100.911723 69.755,95.274 L69.755,52.741 C69.7462419,50.4410933 68.1991941,48.4316105 65.978,47.835 Z M66.352,95.275 C66.352,99.0335739 63.3050739,102.0805 59.5465,102.0805 C55.7879261,102.0805 52.741,99.0335739 52.741,95.275 L52.741,52.741 C52.741,51.8021159 53.5021159,51.041 54.441,51.041 L64.649,51.041 C65.5878841,51.041 66.349,51.8021159 66.349,52.741 L66.352,95.275 Z" id="Shape"></path>
                <path d="M98.677,-8.8817842e-16 L98.133,-8.8817842e-16 L97.689,0.318 C89.773657,5.9811069 85.0734215,15.1124081 85.064,24.845 L85.064,59.472 L81.695,96.525 C81.671,96.772 81.661,97.025 81.661,97.27 C81.6654091,101.803144 85.3388561,105.477039 89.872,105.482 L90.464,105.482 C94.9971439,105.477039 98.6705909,101.803144 98.675,97.27 L98.675,59.547 C98.6805022,56.73263 100.96063,54.4525022 103.775,54.447 L105.475,54.447 L105.475,6.805 C105.47115,3.05102965 102.430964,0.0077131777 98.677,-8.8817842e-16 L98.677,-8.8817842e-16 Z M95.277,97.27 C95.2747962,99.9247956 93.1237944,102.076692 90.469,102.08 L89.877,102.08 C87.2222056,102.076692 85.0712038,99.9247956 85.069,97.27 C85.069,97.127 85.076,96.982 85.089,96.834 L88.323,61.247 L95.276,61.247 L95.277,97.27 Z M102.082,51.212 C98.7444852,51.8994432 96.1364432,54.5074852 95.449,57.845 L88.472,57.845 L88.472,24.845 C88.4829227,16.4248137 92.45049,8.49930823 99.185,3.445 C100.850106,3.69643404 102.082141,5.12602028 102.085,6.81 L102.082,51.212 Z" id="Shape"></path>
                <circle id="Oval" cx="90.741" cy="96.742" r="2"></circle>
            </g>
        </g>
    </g>
</svg>