{
    "key": "group_5e9735383d348",
    "title": "Event details",
    "fields": [
        {
            "key": "field_5e97355d5d45b",
            "label": "<span class=\"dashicons dashicons-admin-settings\"><\/span> General",
            "name": "",
            "type": "tab",
            "instructions": "",
            "required": 0,
            "conditional_logic": 0,
            "wrapper": {
                "width": "",
                "class": "",
                "id": ""
            },
            "placement": "left",
            "endpoint": 0
        },
        {
            "key": "field_5ea169ac85463",
            "label": "Category",
            "name": "event_cat",
            "type": "taxonomy",
            "instructions": "",
            "required": 1,
            "conditional_logic": 0,
            "wrapper": {
                "width": "",
                "class": "",
                "id": ""
            },
            "taxonomy": "event-cat",
            "field_type": "radio",
            "allow_null": 0,
            "add_term": 0,
            "save_terms": 1,
            "load_terms": 1,
            "return_format": "object",
            "multiple": 0
        },
        {
            "key": "field_61276ff52229e",
            "label": "url",
            "name": "url",
            "type": "url",
            "instructions": "",
            "required": 0,
            "conditional_logic": 0,
            "wrapper": {
                "width": "",
                "class": "",
                "id": ""
            },
            "default_value": "",
            "placeholder": ""
        },
        {
            "key": "field_5ea169e385464",
            "label": "<span class=\"dashicons dashicons-calendar-alt\"><\/span> Date and duration",
            "name": "",
            "type": "tab",
            "instructions": "",
            "required": 0,
            "conditional_logic": 0,
            "wrapper": {
                "width": "",
                "class": "",
                "id": ""
            },
            "placement": "left",
            "endpoint": 0
        },
        {
            "key": "field_5e9735fc3ad86",
            "label": "Event start",
            "name": "event_datetime_start",
            "type": "date_time_picker",
            "instructions": "",
            "required": 1,
            "conditional_logic": 0,
            "wrapper": {
                "width": "50",
                "class": "",
                "id": ""
            },
            "display_format": "Y-m-d H:i:s",
            "return_format": "Y-m-d H:i:s",
            "first_day": 1
        },
        {
            "key": "field_5e97362d3ad87",
            "label": "Event End Time",
            "name": "event_datetime_end",
            "type": "date_time_picker",
            "instructions": "",
            "required": 1,
            "conditional_logic": 0,
            "wrapper": {
                "width": "50",
                "class": "",
                "id": ""
            },
            "display_format": "Y-m-d H:i:s",
            "return_format": "Y-m-d H:i:s",
            "first_day": 1
        },
        {
            "key": "field_5ea2925899b5a",
            "label": "Duration",
            "name": "event_duration",
            "type": "number",
            "instructions": "",
            "required": 0,
            "conditional_logic": 0,
            "wrapper": {
                "width": "",
                "class": "",
                "id": ""
            },
            "default_value": "",
            "placeholder": "",
            "prepend": "",
            "append": "Hours",
            "min": 1,
            "max": "",
            "step": 1
        }
    ],
    "location": [
        [
            {
                "param": "post_type",
                "operator": "==",
                "value": "event"
            }
        ]
    ],
    "menu_order": 0,
    "position": "normal",
    "style": "default",
    "label_placement": "top",
    "instruction_placement": "label",
    "hide_on_screen": "",
    "active": true,
    "description": "",
    "modified": 1629979895
}