<?xml version="1.0" encoding="UTF-8"?>
<svg width="255px" height="149px" viewBox="0 0 255 149" version="1.1" xmlns="http://www.w3.org/2000/svg" xmlns:xlink="http://www.w3.org/1999/xlink">
    <!-- Generator: Sketch 64 (93537) - https://sketch.com -->
    <title>4hotel</title>
    <desc>Created with Sketch.</desc>
    <g id="Symbols" stroke="none" stroke-width="1" fill="none" fill-rule="evenodd">
        <g id="Modulo/parlanodinoi" transform="translate(-967.000000, -151.000000)" fill="#FFFFFF">
            <g id="Logo/4hotel" transform="translate(967.000000, 152.000000)">
                <path d="M129.486103,90.8323448 C128.873163,91.0182691 128.290886,91.1375734 127.755628,91.3656451 C117.065453,95.9202813 106.357561,100.434809 95.7259881,105.121326 C94.4581993,105.680459 93.2316367,107.020677 92.653108,108.299035 C91.5672593,110.697017 90.96931,113.314913 90.1693186,115.841376 C89.3853406,118.316855 88.6879034,120.823944 87.7802471,123.253537 C87.3758221,124.336453 86.6405659,125.338473 85.892022,126.242602 C84.8780635,127.467255 83.4760342,128.012792 81.9213661,127.482211 C80.4287074,126.972363 79.8781171,125.586598 79.9609101,124.205932 C80.1190004,121.569341 80.4402916,118.930371 80.8992305,116.32845 C81.1973534,114.637457 81.8583344,113.010024 82.0249425,111.047452 C81.4920691,111.362197 80.9390938,111.648392 80.4307517,111.998487 C79.0798292,112.929468 77.8106776,113.997428 76.3895684,114.800948 C75.2280817,115.456951 74.4434223,114.92773 74.5711893,113.603826 C75.0253582,108.894876 74.9398395,107.524067 79.7857842,105.457146 C81.3489701,104.790605 82.9090897,104.067642 84.5397366,103.622375 C86.3778771,103.120345 87.2449887,101.933081 87.7080161,100.23291 C90.8272331,88.7820787 95.639788,78.0032262 100.839732,67.3793673 C102.903765,63.16225 106.576979,61.4563009 111.008278,61.0841123 C111.837911,61.0140933 113.205188,61.2380862 113.444027,61.7414755 C113.759866,62.4083558 113.415747,63.5949405 112.999398,64.3668493 C108.112227,73.4234375 103.129316,82.4287011 98.2445301,91.4866488 C97.2019519,93.41965 96.4254696,95.4988075 95.581867,97.534118 C95.3382581,98.1218021 95.2881734,98.7897021 95.0718214,99.7747271 C96.5811749,99.2998893 97.7624229,98.9773259 98.9089183,98.5602708 C109.403865,94.745593 119.884162,90.8908073 130.391375,87.1101193 C132.191355,86.4622733 132.99748,85.0513558 133.813485,83.5524046 C139.7078,72.723927 145.577583,61.8815135 151.522324,51.0802278 C153.25791,47.9269919 156.016313,46.0473548 159.614571,45.4967196 C160.167546,45.412085 160.749823,45.4267006 161.307909,45.4882222 C163.960351,45.7805347 164.58726,46.9266715 163.188298,49.2478364 C157.902153,58.0199298 152.53049,66.7400187 147.240598,75.5097328 C142.744905,82.9630211 137.664891,90.0855884 134.252321,98.1571515 C132.107881,103.230132 130.303471,108.401684 129.883714,113.946104 C129.794448,115.124871 129.871448,116.316894 129.889847,117.502459 C129.917104,119.256334 130.065995,121.015307 129.976047,122.762044 C129.751859,127.119879 127.582887,128.339094 122.940007,127.58452 C121.404759,127.335375 120.514479,126.089308 120.49608,124.677371 C120.458943,121.87423 120.322658,118.973878 120.945479,116.278825 C122.843926,108.062126 125.485465,100.06534 129.253738,92.4798315 C129.403651,92.1780018 129.531418,91.8591773 129.619322,91.5352543 C129.6568,91.3965758 129.566171,91.2228878 129.486103,90.8323448" id="Fill-4"></path>
                <path d="M184.794752,114.899886 C186.992298,113.804088 189.030473,113.063445 190.210291,110.838788 C189.05528,110.497608 187.762306,110.05179 186.89953,110.479203 C185.366651,111.238592 184.950045,112.922337 184.794752,114.899886 M203.029593,110.774369 L203.378917,110.988757 C204.630774,109.725607 205.90098,108.480863 207.127012,107.192832 C207.865417,106.416741 208.613677,105.627017 209.195431,104.736746 C209.435676,104.368299 209.251499,103.720704 209.260674,103.200584 C208.685037,103.195812 208.015273,103.003579 207.55755,103.234327 C206.98905,103.521654 206.463025,104.085402 206.15142,104.65733 C205.056894,106.666917 204.062273,108.730698 203.029593,110.774369 M143.866094,120.41398 C143.920463,120.430682 143.974493,120.447383 144.028862,120.464084 C144.028862,120.577242 144.019348,120.691423 144.030221,120.803219 C144.148475,122.020014 144.274884,123.276688 145.858395,123.40757 C147.180932,123.516979 149.851153,121.462742 149.845386,120.420456 C149.844697,120.262648 149.794065,120.078254 149.702996,119.952825 C148.84192,118.766023 147.998513,117.563884 147.086805,116.417301 C146.269904,115.389671 145.444168,115.701539 145.007173,116.725079 C144.504935,117.902337 144.236146,119.180143 143.866094,120.41398 M196.614335,123.327814 C193.806152,124.513593 191.151223,125.807418 188.381438,126.766199 C183.446049,128.475166 181.608361,127.722252 178.929305,123.22897 C177.099433,124.035396 175.265143,124.871815 173.407066,125.651655 C172.31322,126.111106 171.195248,126.523862 170.064363,126.882084 C165.349171,128.378367 163.037789,127.121012 161.871563,122.257238 C161.440006,120.457267 161.383258,118.566973 161.132139,116.529437 C159.298188,117.40812 157.347344,118.036628 156.103302,120.061553 C154.956107,121.929351 153.527549,123.650929 152.055495,125.285253 C149.665617,127.939367 146.585247,128.05832 143.434876,127.106015 C140.408875,126.190521 138.682644,124.014264 138.054677,120.898994 C136.860587,114.971803 139.012599,109.957719 144.034299,107.111372 C146.393594,105.774601 148.151427,105.963766 150.287128,107.661827 C150.874998,108.128776 151.60185,108.568118 152.321566,108.692183 C154.650958,109.094714 155.965,110.321735 156.295295,112.652393 C156.544035,114.409418 156.853941,114.580519 158.47687,113.857259 C161.04005,112.715107 163.204635,111.239615 163.856049,108.208873 C164.101052,107.069448 164.712368,106.00978 165.248247,104.688006 C164.091197,104.512473 163.041187,104.422151 162.031614,104.170612 C161.554861,104.051659 161.154906,103.623224 160.71995,103.335215 C161.116847,102.903372 161.456317,102.188292 161.921855,102.092857 C163.237936,101.823253 164.624018,101.904032 165.944516,101.650448 C166.603406,101.523655 167.428803,101.115671 167.747544,100.577827 C168.766972,98.859998 170.019168,97.4652844 171.871808,96.6891938 C173.608913,95.9615024 175.275337,95.8510705 176.704914,97.3947307 C177.894586,98.6790124 179.345911,98.4196339 180.816606,98.0600486 C190.102571,95.7886969 199.392275,93.532683 208.676542,91.2545145 C220.268793,88.4102123 231.857306,85.5522765 243.446498,82.6950224 C246.801095,81.867806 249.952825,82.6588935 253.028778,83.9292008 C253.566016,84.151087 253.993836,84.6401911 254.975545,85.3907188 C253.508928,85.8907297 252.522802,86.3597243 251.484685,86.5597969 C243.540286,88.0905052 235.562925,89.4579517 227.638914,91.0868217 C211.45856,94.4130704 195.309128,97.8913333 179.13557,101.248257 C177.13953,101.662377 175.655244,102.604797 174.799264,104.40545 C172.152491,109.973738 169.540037,115.559409 166.986371,121.170643 C166.720641,121.754501 166.93472,122.55854 166.926565,123.259987 C167.635407,123.267144 168.44857,123.506073 169.035421,123.241581 C171.920401,121.939576 174.769361,120.549634 177.565651,119.066643 C177.9775,118.848166 178.215026,117.971187 178.233036,117.389374 C178.331581,114.233204 178.524253,111.200418 180.973937,108.729335 C184.481108,105.191425 191.977978,105.854016 194.643442,110.070196 C195.62685,111.625444 195.647238,112.936652 194.000183,114.292169 C191.702053,116.183486 189.071251,117.662046 186.669479,119.435091 C185.871607,120.023379 185.191989,120.895927 184.721693,121.779723 C184.053288,123.036056 184.812762,123.441313 185.97423,123.242604 C186.750014,123.110018 187.524099,122.898697 188.261145,122.621254 C189.318632,122.223836 190.328205,121.698944 191.381953,121.289937 C194.399799,120.118132 196.17836,118.562202 196.588849,114.728784 C197.248079,108.573912 200.939426,103.499841 204.860145,98.8075088 C206.273411,97.1162652 209.705144,97.0617309 212.002594,98.3974793 C213.723048,99.3978421 214.398589,101.155208 213.658485,103.610272 C213.191927,105.157682 212.595561,106.825748 211.566619,108.010846 C209.163149,110.779823 206.662153,113.54096 203.811834,115.815039 C202.021719,117.243495 201.346518,118.711148 201.30744,120.811058 C201.245595,124.090953 201.845358,124.641748 204.734755,123.166938 C209.165867,120.90513 213.479745,118.410869 217.817409,115.968416 C219.571504,114.980664 220.615738,115.029745 221.280745,116.317095 C221.998761,117.708059 221.444193,118.859413 219.792041,119.704013 C216.215549,121.532273 212.678135,123.438927 209.099265,125.263439 C207.741047,125.956024 206.350888,126.622364 204.910437,127.10806 C200.371265,128.640132 198.391877,127.69703 196.614335,123.327814" id="Fill-6"></path>
                <path d="M6.90536116,122.792504 C7.79851408,122.507161 8.70390664,122.253411 9.58345997,121.931042 C15.7450932,119.67276 21.9118262,117.427387 28.0459203,115.095392 C28.7411992,114.83111 29.5088959,114.166331 29.7887074,113.498154 C31.4434373,109.542085 32.9852905,105.538798 34.5217039,101.534833 C35.4872747,99.0187239 38.4264856,97.1415783 41.0977846,97.4201269 C42.7555743,97.5923514 43.1509823,98.2676618 42.4227244,99.8139461 C40.4633638,103.97519 38.477824,108.124544 36.4368659,112.41657 C38.016798,111.668905 39.4648141,110.951812 40.9396894,110.295525 C42.1231935,109.769 43.2339398,109.810442 43.6953058,111.245987 C44.150892,112.662508 43.3491963,113.355482 42.0310563,113.608214 C41.975638,113.618745 41.9225996,113.639806 41.8685412,113.65679 C39.6110097,114.370826 36.8020148,114.500589 35.2513218,115.962969 C33.6992689,117.426368 33.2821015,120.183319 32.5837627,122.440242 C31.2153042,126.86203 29.8968242,131.305559 28.7694183,135.792909 C28.350891,137.459784 28.5627046,139.278163 28.4212689,141.022488 C28.2546739,143.077293 27.9629628,145.106282 26.0705802,146.417159 C24.162898,147.738905 22.2895548,147.12474 22.1270397,144.826714 C21.9546649,142.38296 22.0253828,139.809103 22.612545,137.446536 C24.1649379,131.20501 26.0542606,125.047049 27.8089475,118.855458 C27.9136643,118.486211 28.0146412,118.115606 28.2261148,117.353334 C27.4220392,117.665512 26.8797556,117.835359 26.373171,118.078579 C19.8960273,121.187453 13.441663,124.344903 6.93664021,127.39467 C5.47468453,128.079831 3.86823323,128.61315 2.2760615,128.827157 C0.391838622,129.080568 -0.490094642,127.769351 0.275562147,126.067488 C8.49923284,107.78553 16.7715221,89.5253133 24.9676536,71.231127 C26.4003702,68.0332537 28.9676323,66.594992 32.1611555,65.9791279 C34.4941648,65.5290342 35.5161738,66.7108274 34.8518339,68.9918684 C34.6655196,69.6311713 34.2918709,70.220879 33.9719406,70.8160217 C25.514017,86.5380499 17.0445338,102.253964 8.60394967,117.985503 C7.8376129,119.413574 7.25181066,120.938458 6.58203096,122.418162 L6.90536116,122.792504 Z" id="Fill-8"></path>
                <path d="M83.7415101,10.1857315 C84.213612,12.1638383 84.6578048,14.1490049 85.1695849,16.1166899 C85.4063083,17.0280848 85.4722143,17.8809836 84.381067,18.1304322 C83.2690719,18.3849235 83.0017492,17.5058023 82.7922624,16.637439 C82.0195485,13.4325967 81.2320394,10.2314525 80.438814,7.03165308 C80.2303359,6.19018449 79.9539343,5.15877193 81.0790434,4.98362006 C81.7777812,4.87469644 82.8373205,5.27240213 83.3020249,5.81433076 C84.6077028,7.33522725 85.6847274,9.05211901 86.8626285,10.6839562 C87.0731241,10.9754278 87.3357392,11.2292467 87.848528,11.8128621 C87.2526843,9.40981881 86.6739895,7.43003114 86.315878,5.41124613 C86.2109664,4.82157936 86.5616804,3.75285038 87.0055369,3.54408011 C88.0351495,3.05930276 88.420834,3.95691408 88.6373822,4.84006949 C89.4484291,8.1501373 90.3156306,11.4481025 91.0412688,14.7769966 C91.1619843,15.3310279 90.7457007,16.5069996 90.4652641,16.5439798 C89.7702251,16.6354218 88.7217822,16.4703555 88.3273551,15.98894 C86.7825999,14.10362 85.436235,12.0559232 84.0158941,10.0684033 C83.9244328,10.1077368 83.8329714,10.1467342 83.7415101,10.1857315" id="Fill-10"></path>
                <path d="M47.0246042,26.399109 C47.5847052,25.5662067 48.3805124,24.9073287 48.3371916,24.3071293 C48.2890952,23.6361802 47.6003962,22.7120745 46.9649102,22.4686416 C46.4034448,22.2537099 45.5312291,22.8237316 44.5723717,23.1151133 C45.471535,24.3192004 46.1268054,25.1966985 47.0246042,26.399109 M47.9674295,27.773532 C48.8304352,28.9159226 49.6160092,29.9553739 50.3910088,30.9810777 C52.4270883,29.6934993 52.6037828,29.0990001 51.5265606,27.6306913 C50.4820849,26.2069782 49.8575143,26.213349 47.9674295,27.773532 M50.5465545,24.4523172 C52.911122,24.5337968 53.9122768,26.0671552 54.4839755,27.900278 C55.0672719,29.7696139 53.9027258,30.8861859 52.4564237,31.886071 C49.2517048,34.101779 49.6501201,34.258032 47.3387656,31.0528334 C45.7672765,28.8733386 44.1893064,26.6975322 42.5686976,24.5532446 C41.8796574,23.6408745 41.9652758,22.9511483 42.9135588,22.3237891 C43.4770708,21.9509278 44.0197752,21.5478889 44.5710073,21.1572564 C45.7242968,20.3404488 46.8864551,19.3194393 48.3985912,20.2472335 C49.8714998,21.1512209 50.7665698,22.4616002 50.5465545,24.4523172" id="Fill-12"></path>
                <path d="M156.975661,9.31165609 C158.170427,9.04864546 159.138961,9.10171486 159.604834,8.6574672 C160.060736,8.22356641 160.325475,7.14782622 160.083084,6.60044369 C159.825908,6.02068548 158.87319,5.73097326 157.991642,5.16556715 C157.640948,6.59777353 157.385148,7.64013673 156.975661,9.31165609 M155.604517,15.1302657 C156.858419,14.8959593 158.039089,15.0064371 158.406973,14.5278111 C158.94161,13.8335699 159.201536,12.6343348 158.976679,11.8032479 C158.827806,11.2518602 157.627539,10.9681558 156.717454,10.4648309 C156.327565,12.098968 156.03532,13.3242371 155.604517,15.1302657 M160.886585,10.470505 C162.357437,12.3536344 161.864746,14.0812271 160.808883,15.7020134 C159.772617,17.2940956 158.189337,17.1836177 156.522509,16.7911044 C152.360942,15.8104886 152.792777,16.144926 153.709394,12.3639813 C154.298698,9.93280176 154.955389,7.51230289 155.41301,5.05742572 C155.709725,3.4663449 156.544514,3.16762089 157.956916,3.56781093 C158.395283,3.69197331 158.851529,3.75505581 159.292647,3.87087394 C160.652446,4.22800767 162.299332,4.30143704 162.650369,5.99899044 C163.006564,7.72357919 162.649338,9.3303472 160.886585,10.470505" id="Fill-14"></path>
                <path d="M118.14482,1.40262859 L118.14482,4.86516628 C120.084417,4.9672805 120.702887,4.46847846 120.623009,2.96376475 C120.532194,1.25551487 119.504725,1.10978576 118.14482,1.40262859 L118.14482,1.40262859 Z M118.177965,11.5036295 C119.195159,11.0339041 120.369788,10.8736366 120.629969,10.2779126 C120.97732,9.48211396 120.877225,8.19720544 120.463586,7.41386816 C120.198101,6.91160462 119.021483,6.93445052 118.177965,6.70114547 L118.177965,11.5036295 Z M121.9912,5.63465756 C123.501248,7.15564032 123.863845,8.98573497 123.154229,10.9072132 C122.475436,12.7449231 121.044603,13.0408813 119.397007,13.0484966 C115.432634,13.0668426 115.773687,13.4109156 115.719331,9.43676832 C115.68221,6.72987591 115.638459,4.02159891 115.539027,1.31643726 C115.490305,-0.00550929842 115.988793,-0.626502261 117.269815,-0.559003026 C117.875358,-0.527503383 118.483222,-0.563156825 119.090092,-0.554503077 C120.39564,-0.536503281 121.868235,-0.846653613 122.580503,0.737328437 C123.336853,2.41961707 123.289457,4.08979045 121.9912,5.63465756 L121.9912,5.63465756 Z" id="Fill-16"></path>
                <path d="M58.5856253,19.9865215 C59.3126285,19.0063161 60.1333193,18.3877962 60.1474229,17.7501504 C60.1632054,17.0424899 59.6007434,16.0329124 58.9959707,15.6869375 C58.4660811,15.3833129 57.5285325,15.8167208 56.5537102,15.9550425 C57.2652667,17.3676312 57.7897835,18.4076053 58.5856253,19.9865215 M62.3650344,18.0899777 C63.2105743,18.9742118 63.9523526,19.6026362 64.5070913,20.3707484 C65.0957456,21.1853094 65.6122033,22.0934509 65.9510237,23.0384782 C66.1216092,23.514578 65.9520311,24.5798257 65.7216735,24.6501819 C65.1558535,24.8223155 64.2491983,24.8031895 63.8747832,24.4397963 C63.2589293,23.8417685 62.9570467,22.9097195 62.5201732,22.1200906 C61.5090847,20.2925369 61.2233204,20.2126177 59.2411034,21.3338771 C59.8757621,22.617024 60.6259354,23.8711405 61.104112,25.2239607 C61.3062626,25.7960318 60.9365487,26.5767808 60.8270785,27.262583 C60.2159257,26.9575923 59.3096063,26.8172214 59.0419751,26.3206295 C57.3841392,23.2423746 55.8800989,20.078736 54.3011757,16.9553985 C53.8522134,16.0670659 54.0550356,15.4338601 54.8911732,14.9844 C55.6302651,14.5871948 56.392527,14.2343892 57.1275894,13.8306948 C58.4120176,13.124742 59.7609191,12.5550616 60.9795309,13.7798061 C62.204187,15.0106982 63.0638305,16.4690526 62.3650344,18.0899777" id="Fill-18"></path>
                <path d="M189.607914,20.4417883 C191.491633,21.5612788 192.291846,21.380265 192.983076,19.8292047 C193.702968,18.2147385 192.618797,17.7647605 191.389315,17.246945 C190.791071,18.3200742 190.225155,19.3349108 189.607914,20.4417883 M188.65439,22.2624944 C187.963161,23.5186828 187.363917,24.8652076 186.517377,26.0228781 C186.175428,26.4905824 185.294227,26.5454661 184.658322,26.7881814 C184.587332,26.1377588 184.243717,25.3424569 184.489014,24.8600942 C186.042115,21.7999035 187.74286,18.8184588 189.356952,15.7896302 C189.928866,14.716501 190.625429,14.4724221 191.64461,15.1320488 C192.205193,15.4947583 192.80277,15.7967889 193.383683,16.1250683 C194.662825,16.848101 195.970296,17.5377262 195.762993,19.4024075 C195.574022,21.1000514 194.49485,22.4656662 192.706118,23.128361 C193.568322,25.6322154 191.442307,27.2071382 190.772407,29.2654463 C190.703751,29.4767995 189.620579,29.6533818 189.396613,29.4328244 C189.003005,29.0448889 188.641726,28.2778811 188.749043,27.7781329 C188.932682,26.922493 189.488932,26.1507127 189.887206,25.3431387 C190.791404,23.5098196 190.667756,23.1716543 188.65439,22.2624944" id="Fill-20"></path>
                <path d="M144.40286,7.36112952 C145.572604,6.99678361 146.596521,6.97537149 146.976574,6.48153323 C147.414401,5.91224273 147.591551,4.79575362 147.309295,4.15984764 C147.058362,3.59497552 146.023308,3.36284095 145.077003,2.84215257 C144.843472,4.40829621 144.672587,5.55265507 144.40286,7.36112952 M148.513494,8.24922269 C150.116888,10.3448915 148.79923,12.5887457 148.790529,14.7642851 C148.789833,14.9678701 147.869282,15.438257 147.607212,15.3148824 C147.080984,15.0671136 146.416935,14.5358891 146.347328,14.0481686 C146.214379,13.1209898 146.447214,12.1407905 146.549536,11.1850623 C146.746871,9.34565919 146.394313,8.98063352 144.192647,8.96703853 C143.992876,10.3211002 143.906215,11.7339603 143.53173,13.0696687 C143.362934,13.6722669 142.620924,14.1215816 142.138549,14.6402307 C141.790167,14.0400116 141.090618,13.4037658 141.150827,12.846031 C141.521832,9.41907217 142.096437,6.01352546 142.533568,2.59268438 C142.698536,1.3021793 143.394257,0.987794996 144.566088,1.19409907 C145.192202,1.30455842 145.82458,1.38069041 146.454871,1.46565914 C147.962555,1.66856446 149.511308,1.80111568 150.077212,3.55656965 C150.584646,5.13053041 149.975934,6.96109674 148.513494,8.24922269" id="Fill-22"></path>
                <path d="M100.696744,11.6437545 C100.31299,9.1009176 100.11142,7.00222041 99.6263796,4.97480491 C99.4599082,4.28015123 98.5834263,3.26781428 98.0308616,3.26747129 C96.8040544,3.26678618 96.7716293,4.50187838 96.8829445,5.47137778 C97.115269,7.49605167 97.330211,9.53717519 97.7938572,11.5114721 C97.9556487,12.2006426 98.8281192,12.7140078 99.3760039,13.3075649 C99.8677297,12.6883053 100.358787,12.0693884 100.696744,11.6437545 M103.009626,9.60948497 C103.094868,13.7952275 102.110748,14.9730888 99.2606774,15.3007103 C97.5501671,15.4974204 96.1141007,14.8620538 95.7443871,13.1554059 C95.1232951,10.2900879 94.6446063,7.35897152 94.4838176,4.433681 C94.3758452,2.47343478 95.667837,1.5279244 97.9018296,1.19927473 C99.7938538,0.921002016 101.177438,1.54231782 101.715295,3.40900684 C102.40224,5.79351614 102.74354,8.28254907 103.009626,9.60948497" id="Fill-24"></path>
                <path d="M77.4032904,17.0725738 C77.405994,19.52025 76.3360421,20.7486278 74.342749,21.3381011 C72.4584826,21.8949567 70.767891,21.5280911 70.0832573,19.9654655 C68.7617314,16.9478193 67.6765429,13.8242495 66.6062525,10.7063961 C66.4830049,10.3472646 67.0755415,9.74568574 67.3362576,9.2564195 C67.8624301,9.55098804 68.6808078,9.72349222 68.8653406,10.160301 C69.8008713,12.3739365 70.5704917,14.6568427 71.4017359,16.9141927 C71.5761109,17.3866457 71.6401049,17.9969675 71.9776815,18.290191 C72.5373746,18.7764308 73.3273106,19.4237419 73.9320365,19.3437107 C75.0270441,19.1991165 75.1831352,18.1970455 74.8370938,17.2265834 C73.954045,14.7499883 73.0459403,12.2821361 72.1486706,9.81058497 C72.0149266,9.44237429 71.724753,9.03650189 71.796196,8.71032439 C71.9014982,8.22879226 72.1727107,7.56803064 72.5471938,7.4214189 C72.9111806,7.27884234 73.8094661,7.56365919 73.9327137,7.87335967 C75.2342627,11.1368159 76.4271235,14.4429779 77.4032904,17.0725738" id="Fill-26"></path>
                <path d="M133.309011,8.12460569 C133.071535,6.35030483 132.865225,4.8109265 132.659255,3.27121351 C132.543735,3.25883155 132.427876,3.2464496 132.312695,3.23406764 C131.902109,4.77344598 131.491861,6.31282432 131.047059,7.98003799 C131.833339,8.03023511 132.435668,8.06871957 133.309011,8.12460569 M136.594042,12.7062641 C136.334546,12.9562458 135.96495,13.6037886 135.554702,13.6298911 C135.083476,13.6600094 134.524171,13.1981959 134.106809,12.8337648 C133.898806,12.6517166 133.831391,12.2042929 133.855782,11.8887204 C133.989934,10.1589276 132.963468,9.75433885 131.553856,10.0167025 C131.057561,10.1090652 130.54636,10.6070206 130.236388,11.0521017 C129.931836,11.4888167 130.011446,12.215671 129.669629,12.5894722 C129.334249,12.9569151 128.645873,13.249397 128.178713,13.1741013 C127.876532,13.1255774 127.401918,12.2769114 127.501177,11.9231891 C128.542549,8.22700782 129.621524,4.53718487 130.872255,0.906594521 C131.043671,0.409308388 132.297112,-0.118430665 132.888939,0.0234598604 C133.566813,0.185429233 134.422541,0.997953279 134.578713,1.66892145 C135.222371,4.43177092 135.629909,7.24849863 136.124171,10.0451475 C136.259678,10.8124941 136.394846,11.5798408 136.594042,12.7062641" id="Fill-28"></path>
                <path d="M179.308271,12.256292 C178.898474,13.1967348 178.52404,14.0570896 178.070212,15.0989097 C179.069742,15.5044186 180.083834,15.7730683 180.919376,16.3069884 C181.457104,16.6506572 181.732382,17.3849663 182.125191,17.9442307 C181.423128,18.0513527 180.686742,18.339602 180.026629,18.2213285 C179.142202,18.06318 178.317061,17.5907621 177.279741,17.1788326 C176.801991,18.2392385 176.351631,19.2394939 175.804195,20.4543311 C176.948645,20.9301283 178.096215,21.282921 179.095051,21.8742882 C179.605044,22.1763924 179.848426,22.9063085 180.212112,23.442932 C179.579042,23.5838464 178.867964,23.9761763 178.327462,23.8176898 C176.844288,23.3824436 175.431494,22.717071 173.992005,22.1405724 C173.08747,21.7786557 172.793123,21.21635 173.19564,20.2732038 C174.566136,17.0605592 175.885669,13.8269633 177.238137,10.6068844 C177.605637,9.73301258 178.235241,9.43293596 179.178952,9.82459002 C180.610815,10.4186606 182.099189,10.9005404 183.472806,11.6000433 C183.92698,11.8311834 184.100329,12.5871197 184.401956,13.1031298 C183.80945,13.2572232 183.159044,13.6417809 182.636571,13.5170869 C181.535111,13.2555336 180.500565,12.7270203 179.308271,12.256292" id="Fill-30"></path>
                <path d="M196.055452,34.077301 C194.909155,34.1150951 194.258934,32.9905499 194.897483,32.1034201 C197.136177,28.9936558 199.435981,25.9251214 201.813028,22.9208369 C202.074283,22.5909978 202.986789,22.7775631 203.597529,22.7243078 C203.625681,23.290188 203.901355,24.0326696 203.643532,24.3941182 C201.45084,27.4671192 199.169576,30.4772446 196.887968,33.4856521 C196.664476,33.7804458 196.259375,33.9367758 196.055452,34.077301" id="Fill-32"></path>
                <path d="M171.311694,7.87137835 C170.781212,9.56911634 170.344189,10.9593152 169.912819,12.3515485 C169.232339,14.5473846 168.623033,16.7710246 167.823154,18.9204077 C167.652867,19.3771389 166.792123,19.5663416 166.249336,19.8789668 C166.030491,19.3181402 165.511318,18.6691547 165.640695,18.2110672 C166.633145,14.7040363 167.713066,11.2207404 168.8768,7.76931741 C169.031122,7.311569 169.803729,6.83720602 170.307604,6.81584443 C170.654495,6.80160337 171.032651,7.55671871 171.311694,7.87137835" id="Fill-34"></path>
            </g>
        </g>
    </g>
</svg>