<?xml version="1.0" encoding="UTF-8"?>
<svg width="419px" height="70px" viewBox="0 0 419 70" version="1.1" xmlns="http://www.w3.org/2000/svg" xmlns:xlink="http://www.w3.org/1999/xlink">
    <!-- Generator: Sketch 64 (93537) - https://sketch.com -->
    <title>Tripadvisor</title>
    <desc>Created with Sketch.</desc>
    <defs>
        <polygon id="path-1" points="0 1.33632 115.633167 1.33632 115.633167 69.859728 0 69.859728"></polygon>
    </defs>
    <g id="Symbols" stroke="none" stroke-width="1" fill="none" fill-rule="evenodd">
        <g id="Modulo/parlanodinoi" transform="translate(294.000000, -191.000000)">
            <g id="Logo/Tripadvisor" transform="translate(-294.000000, 190.000000)">
                <g id="Group-28">
                    <path d="M24.4504505,40.627872 C24.4504505,43.264512 26.577686,45.401472 29.2023276,45.401472 C31.8269693,45.401472 33.9556382,43.264512 33.9556382,40.627872 C33.9556382,37.991232 31.8269693,35.854272 29.2023276,35.854272 C26.577686,35.854272 24.4504505,37.991232 24.4504505,40.627872" id="Fill-1" fill="#FFFFFF"></path>
                    <path d="M81.6776724,40.627872 C81.6776724,43.264512 83.8049078,45.401472 86.4295495,45.401472 C89.0541911,45.401472 91.1828601,43.264512 91.1828601,40.627872 C91.1828601,37.991232 89.0541911,35.854272 86.4295495,35.854272 C83.8049078,35.854272 81.6776724,37.991232 81.6776724,40.627872" id="Fill-3" fill="#FFFFFF"></path>
                    <path d="M22.3219249,47.540304 C20.4842457,45.694224 19.4722321,43.239024 19.4722321,40.628304 C19.4722321,38.016144 20.4842457,35.562384 22.3219249,33.714864 C24.1596041,31.868784 26.6036314,30.852144 29.202471,30.852144 C34.5678635,30.852144 38.9341433,35.238384 38.9341433,40.628304 C38.9341433,46.018224 34.5678635,50.403024 29.202471,50.403024 C26.6036314,50.403024 24.1596041,49.386384 22.3219249,47.540304 M19.2815836,30.660624 C16.6311399,33.323184 15.1718908,36.862704 15.1718908,40.628304 C15.1718908,44.392464 16.6311399,47.931984 19.2815836,50.594544 C21.9320273,53.257104 25.4554403,54.723024 29.202471,54.723024 C36.9402184,54.723024 43.2344846,48.399984 43.2344846,40.628304 C43.2344846,32.855184 36.9402184,26.532144 29.202471,26.532144 C25.4554403,26.532144 21.9320273,27.998064 19.2815836,30.660624" id="Fill-5" fill="#FFFFFF"></path>
                    <path d="M79.5492901,47.540304 C77.7116109,45.694224 76.6995973,43.239024 76.6995973,40.628304 C76.6995973,38.016144 77.7116109,35.562384 79.5492901,33.714864 C81.3869693,31.868784 83.8309966,30.852144 86.4298362,30.852144 C91.7952287,30.852144 96.1615085,35.238384 96.1615085,40.628304 C96.1615085,46.018224 91.7952287,50.403024 86.4298362,50.403024 C83.8309966,50.403024 81.3869693,49.386384 79.5492901,47.540304 M76.5089488,30.660624 C73.8585051,33.323184 72.399256,36.862704 72.399256,40.628304 C72.399256,44.392464 73.8585051,47.931984 76.5089488,50.594544 C79.1593925,53.257104 82.6828055,54.723024 86.4298362,54.723024 C94.1675836,54.723024 100.46185,48.399984 100.46185,40.628304 C100.46185,32.855184 94.1675836,26.532144 86.4298362,26.532144 C82.6828055,26.532144 79.1593925,27.998064 76.5089488,30.660624" id="Fill-7" fill="#FFFFFF"></path>
                    <g id="Group-11" transform="translate(0.000000, 0.103968)">
                        <mask id="mask-2" fill="white">
                            <use xlink:href="#path-1"></use>
                        </mask>
                        <g id="Clip-10"></g>
                        <path d="M86.4295495,64.099728 C73.4883891,64.099728 62.9597201,53.524368 62.9597201,40.524048 C62.9597201,27.523728 73.4883891,16.946928 86.4295495,16.946928 C99.3707099,16.946928 109.899379,27.523728 109.899379,40.524048 C109.899379,53.524368 99.3707099,64.099728 86.4295495,64.099728 M29.2034744,64.099728 C16.262314,64.099728 5.73364505,53.524368 5.73364505,40.524048 C5.73364505,27.523728 16.262314,16.946928 29.2034744,16.946928 C42.1432014,16.946928 52.6718703,27.523728 52.6718703,40.524048 C52.6718703,53.524368 42.1432014,64.099728 29.2034744,64.099728 M109.040744,21.988368 C110.141631,18.693648 111.825932,14.812848 114.152416,12.475728 L94.9757611,12.475728 C94.6589693,12.377808 94.327843,12.311568 94.0053174,12.223728 C92.9632014,10.582128 85.8303686,1.335888 57.3219727,1.335888 C26.0355563,1.335888 20.4909829,12.475728 20.4909829,12.475728 L0.490095563,12.475728 C3.0416314,15.038928 4.81480546,19.449648 5.89992491,22.917168 C2.21453242,27.827568 -0.00014334471,33.913008 -0.00014334471,40.524048 C-0.00014334471,56.699568 13.1001297,69.859728 29.2034744,69.859728 C38.1295495,69.859728 46.1224505,65.807568 51.4835427,59.445648 L58.1132355,68.771088 L63.8355563,59.082768 C69.195215,65.654928 77.3314608,69.859728 86.4295495,69.859728 C102.531461,69.859728 115.633167,56.699568 115.633167,40.524048 C115.633167,33.498288 113.156171,27.045648 109.040744,21.988368" id="Fill-9" fill="#FFFFFF" mask="url(#mask-2)"></path>
                    </g>
                    <path d="M137.228621,18.952704 L137.228621,26.469504 L145.356266,26.469504 L145.356266,30.811104 L137.228621,30.811104 L137.228621,47.723904 C137.228621,51.611904 138.325208,53.813664 141.485959,53.813664 C143.034082,53.813664 143.937154,53.685504 144.77572,53.426304 L145.033741,57.769344 C143.937154,58.156704 142.195515,58.545504 140.002341,58.545504 C137.357631,58.545504 135.228962,57.638304 133.874355,56.149344 C132.326232,54.398304 131.681181,51.611904 131.681181,47.918304 L131.681181,30.811104 L126.843297,30.811104 L126.843297,26.469504 L131.681181,26.469504 L131.681181,20.702304 L137.228621,18.952704 Z" id="Fill-12" fill="#FFFFFF"></path>
                    <path d="M147.903072,36.4176 C147.903072,32.724 147.838567,29.5488 147.645051,26.6328 L152.611945,26.6328 L152.869966,32.7888 L153.063481,32.7888 C154.482594,28.5768 157.96587,25.92 161.771672,25.92 C162.352218,25.92 162.803754,25.9848 163.319795,26.1144 L163.319795,31.428 C162.674744,31.3632 162.094198,31.2984 161.320137,31.2984 C157.320819,31.2984 154.482594,34.344 153.708532,38.556 C153.579522,39.3984 153.515017,40.3056 153.515017,41.2776 L153.515017,57.996 L147.838567,57.996 L147.903072,36.4176 Z" id="Fill-14" fill="#FFFFFF"></path>
                    <path d="M170.383823,57.833568 L176.060273,57.833568 L176.060273,26.468928 L170.383823,26.468928 L170.383823,57.833568 Z M173.091604,20.701728 C170.964369,20.701728 169.545256,19.016928 169.545256,17.008128 C169.545256,14.999328 171.02744,13.379328 173.222048,13.379328 C175.413788,13.379328 176.834334,14.999328 176.834334,17.008128 C176.834334,19.016928 175.413788,20.701728 173.157543,20.701728 L173.091604,20.701728 Z" id="Fill-16" fill="#FFFFFF"></path>
                    <path d="M189.799433,45.066816 C189.799433,45.844416 189.863939,46.686816 190.057454,47.399616 C191.025031,51.353856 194.508307,54.074016 198.507625,54.074016 C204.506601,54.074016 207.989877,49.149216 207.989877,41.956416 C207.989877,35.670816 204.764621,30.292416 198.765645,30.292416 C194.895338,30.292416 191.218546,33.014016 190.121959,37.290816 C189.992949,38.068416 189.799433,38.910816 189.799433,39.623616 L189.799433,45.066816 Z M184.122983,36.707616 C184.122983,32.690016 184.058478,29.450016 183.864962,26.469216 L188.960867,26.469216 L189.283392,31.847616 L189.412403,31.847616 C191.670082,27.959616 195.411379,25.756416 200.442778,25.756416 C208.054382,25.756416 213.730833,32.171616 213.730833,41.697216 C213.730833,52.973856 206.828785,58.545216 199.539706,58.545216 C195.346874,58.545216 191.799092,56.730816 189.928444,53.620416 L189.799433,53.620416 L189.799433,70.664256 L184.122983,70.664256 L184.122983,36.707616 Z" id="Fill-18" fill="#FFFFFF"></path>
                    <path d="M235.91959,41.826816 C229.727099,41.697216 222.696041,42.798816 222.696041,48.890016 C222.696041,52.648416 225.147235,54.333216 227.985461,54.333216 C232.113788,54.333216 234.758498,51.741216 235.66157,49.084416 C235.855085,48.501216 235.91959,47.853216 235.91959,47.270016 L235.91959,41.826816 Z M241.467031,50.315616 C241.467031,53.038656 241.596041,55.694016 241.918567,57.833856 L236.822662,57.833856 L236.306621,53.879616 L236.113106,53.879616 C234.435973,56.343456 231.017201,58.545216 226.566348,58.545216 C220.244846,58.545216 217.01959,54.074016 217.01959,49.538016 C217.01959,41.956416 223.728123,37.809216 235.79058,37.874016 L235.79058,37.226016 C235.79058,34.634016 235.081024,29.903616 228.695017,29.968416 C225.727782,29.968416 222.696041,30.810816 220.502867,32.301216 L219.212765,28.478016 C221.792969,26.858016 225.598771,25.756416 229.533584,25.756416 C239.144846,25.756416 241.467031,32.301216 241.467031,38.586816 L241.467031,50.315616 Z" id="Fill-19" fill="#FFFFFF"></path>
                    <path d="M270.493044,39.23496 C270.493044,38.45736 270.428539,37.55016 270.235024,36.77256 C269.396457,33.20856 266.300212,30.22776 262.042874,30.22776 C256.172908,30.22776 252.689631,35.41176 252.689631,42.28056 C252.689631,48.69576 255.850382,53.94312 261.915297,53.94312 C265.719666,53.94312 269.204375,51.354 270.235024,47.14056 C270.428539,46.36296 270.493044,45.58536 270.493044,44.67816 L270.493044,39.23496 Z M276.169495,11.82456 L276.169495,49.734 C276.169495,52.51896 276.234,55.69416 276.428949,57.834 L271.331611,57.834 L271.07359,52.38936 L270.94458,52.38936 C269.204375,55.88856 265.461645,58.54536 260.367174,58.54536 C252.818642,58.54536 246.948676,52.13016 246.948676,42.60456 C246.884171,32.10696 253.399188,25.75656 260.946287,25.75656 C265.784171,25.75656 269.009427,28.02456 270.364034,30.48696 L270.493044,30.48696 L270.493044,11.82456 L276.169495,11.82456 Z" id="Fill-20" fill="#FFFFFF"></path>
                    <path d="M286.363167,26.469072 L292.48972,44.029872 C293.521802,46.945872 294.360369,49.537872 295.00542,52.129872 L295.200369,52.129872 C295.908491,49.537872 296.812997,46.945872 297.845078,44.029872 L303.907126,26.469072 L309.843031,26.469072 L297.585625,57.833712 L292.168628,57.833712 L280.299686,26.469072 L286.363167,26.469072 Z" id="Fill-21" fill="#FFFFFF"></path>
                    <path d="M313.840341,57.833568 L319.516792,57.833568 L319.516792,26.468928 L313.840341,26.468928 L313.840341,57.833568 Z M316.549556,20.701728 C314.422321,20.701728 313.001775,19.016928 313.001775,17.008128 C313.001775,14.999328 314.486826,13.379328 316.678567,13.379328 C318.871741,13.379328 320.290853,14.999328 320.290853,17.008128 C320.290853,19.016928 318.871741,20.701728 316.614061,20.701728 L316.549556,20.701728 Z" id="Fill-22" fill="#FFFFFF"></path>
                    <path d="M326.8063,52.064928 C328.547939,53.103168 331.515174,54.268128 334.353399,54.268128 C338.417222,54.268128 340.352375,52.259328 340.352375,49.603968 C340.352375,46.880928 338.739747,45.390528 334.61142,43.835328 C328.934969,41.761728 326.290259,38.716128 326.290259,34.957728 C326.290259,29.903328 330.418587,25.756128 337.062614,25.756128 C340.223365,25.756128 342.997085,26.598528 344.674218,27.700128 L343.319611,31.783968 C342.094014,31.069728 339.836334,29.968128 336.932171,29.968128 C333.579338,29.968128 331.773195,31.912128 331.773195,34.244928 C331.773195,36.901728 333.579338,38.068128 337.64316,39.623328 C342.997085,41.632128 345.835311,44.355168 345.835311,49.084128 C345.835311,54.658368 341.513468,58.544928 334.224389,58.544928 C330.805618,58.544928 327.644867,57.637728 325.451693,56.343168 L326.8063,52.064928 Z" id="Fill-23" fill="#FFFFFF"></path>
                    <path d="M364.669372,54.26856 C370.087802,54.26856 374.151625,49.14936 374.151625,42.02136 C374.151625,36.70776 371.506915,30.03336 364.798382,30.03336 C358.154355,30.03336 355.251625,36.25416 355.251625,42.21576 C355.251625,49.08456 359.121932,54.26856 364.604867,54.26856 L364.669372,54.26856 Z M364.475857,58.54536 C356.090191,58.54536 349.510669,52.32312 349.510669,42.41016 C349.510669,31.91256 356.412717,25.75656 364.991898,25.75656 C373.956676,25.75656 380.02159,32.30136 380.02159,41.82696 C380.02159,53.49096 371.958451,58.54536 364.540362,58.54536 L364.475857,58.54536 Z" id="Fill-24" fill="#FFFFFF"></path>
                    <path d="M385.891126,36.254448 C385.891126,32.560848 385.826621,29.385648 385.633106,26.469648 L390.6,26.469648 L390.85802,32.625648 L391.051536,32.625648 C392.470648,28.413648 395.953925,25.756848 399.759727,25.756848 C400.340273,25.756848 400.791809,25.821648 401.30785,25.951248 L401.30785,31.264848 C400.662799,31.200048 400.082253,31.135248 399.308191,31.135248 C395.308874,31.135248 392.470648,34.180848 391.696587,38.392848 C391.567577,39.235248 391.503072,40.142448 391.503072,41.114448 L391.503072,57.832848 L385.826621,57.832848 L385.891126,36.254448 Z" id="Fill-25" fill="#FFFFFF"></path>
                    <path d="M411.316608,28.931472 L411.894287,28.931472 C412.628212,28.931472 413.062546,28.551312 413.062546,27.962352 C413.062546,27.351792 412.658314,27.033552 411.981727,27.033552 C411.624799,27.033552 411.421249,27.052272 411.316608,27.082512 L411.316608,28.931472 Z M409.858792,26.044272 C410.331829,25.953552 411.027051,25.893072 411.819747,25.893072 C412.78159,25.893072 413.458177,26.044272 413.921181,26.433072 C414.316812,26.752752 414.528962,27.222192 414.528962,27.842832 C414.528962,28.690992 413.941249,29.281392 413.380771,29.491632 L413.380771,29.521872 C413.835174,29.711952 414.086027,30.151152 414.250874,30.770352 C414.45299,31.539312 414.645072,32.419152 414.771215,32.679792 L413.266096,32.679792 C413.170055,32.489712 413.005208,31.939632 412.821727,31.110192 C412.638246,30.260592 412.358724,30.041712 411.750942,30.031632 L411.316608,30.031632 L411.316608,32.679792 L409.858792,32.679792 L409.858792,26.044272 Z" id="Fill-26" fill="#FFFFFF"></path>
                    <path d="M407.027447,29.54592 C407.027447,26.65584 409.366833,24.30576 412.243761,24.30576 C415.120689,24.30576 417.460075,26.65584 417.460075,29.54592 C417.460075,32.436 415.120689,34.78608 412.243761,34.78608 C409.366833,34.78608 407.027447,32.436 407.027447,29.54592 M405.594,29.54592 C405.594,33.22944 408.577003,36.22608 412.243761,36.22608 C415.910519,36.22608 418.893522,33.22944 418.893522,29.54592 C418.893522,25.8624 415.910519,22.86576 412.243761,22.86576 C408.577003,22.86576 405.594,25.8624 405.594,29.54592" id="Fill-27" fill="#FFFFFF"></path>
                </g>
            </g>
        </g>
    </g>
</svg>